Removed Pin From Net: NetName=MGND Pin=R4-3
Removed Pin From Net: NetName=MGND Pin=U4-1
Removed Pin From Net: NetName=NetR26_2 Pin=U4-2
Added Pin To Net: NetName=NetR26_2 Pin=U4-1
Added Pin To Net: NetName=MGND Pin=U4-2
