Added Component: Designator=S1(SPSTNC)
Added Component: Designator=U4(SOP4)
Added Pin To Net: NetName=NetQ2_1 Pin=S1-1
Added Pin To Net: NetName=NetJ4_1 Pin=S1-2
Added Pin To Net: NetName=MGND Pin=U4-1
Added Pin To Net: NetName=NetR26_2 Pin=U4-2
Added Pin To Net: NetName=PGND Pin=U4-3
Added Pin To Net: NetName=NetU4_4 Pin=U4-4
Added Member To Class: ClassName=VC and AUX Power Member=Component S1 ATS2D1G NC LFS
Added Member To Class: ClassName=VC and AUX Power Member=Component U4 Opto
