Change Component Designator: OldDesignator=* NewDesignator=Q5
Change Component Designator: OldDesignator=Q? NewDesignator=Q4
Change Component Designator: OldDesignator=R? NewDesignator=R28
Change Net Name : Old Net Name=Net*_1 New Net Name=NetJ9_11
Change Net Name : Old Net Name=Net*_2 New Net Name=NetD3_3
Change Net Name : Old Net Name=Net*_3 New Net Name=NetQ5_3
