Removed Pin From Net: NetName=NetF1_2 Pin=Q2-2
Removed Pin From Net: NetName=NetC4_1 Pin=Q2-3
Removed Pin From Net: NetName=NetD3_3 Pin=Q5-2
Removed Pin From Net: NetName=NetQ5_3 Pin=R9-1
Removed Pin From Net: NetName=MGND Pin=R9-2
Removed Pin From Net: NetName=NetJ9_11 Pin=R10-1
Removed Pin From Net: NetName=NetD3_3 Pin=R10-2
Removed Pin From Net: NetName=MGND Pin=U4-1
Removed Pin From Net: NetName=NetR26_2 Pin=U4-2
Removed Pin From Net: NetName=PGND Pin=U4-3
Removed Member From Class: ClassName=VC and AUX Power Member=R9
Removed Member From Class: ClassName=VC and AUX Power Member=R10
Change Component Footprint: Designator=Q5 Old Footprint=SOT-23 New Footprint=SOT23-3
Change Component Footprint: Designator=Q2 Old Footprint=SOT-23 New Footprint=SOT-223-2
Change Component Comment : Designator=Q5 Old Comment=MOSFET P-Fet New Comment=DMN2075U
Change Component Comment : Designator=Q2 Old Comment=MOSFET P-Fet New Comment=MOSFET P-Fet_1
Added Component: Designator=R4(TO-263-3)
Added Component: Designator=R8(0603R)
Added Pin To Net: NetName=NetC4_1 Pin=Q2-2
Added Pin To Net: NetName=NetC4_1 Pin=Q2-2
Added Pin To Net: NetName=NetF1_2 Pin=Q2-3
Added Pin To Net: NetName=MGND Pin=Q5-2
Added Pin To Net: NetName=NetD3_3 Pin=R4-1
Added Pin To Net: NetName=NetQ5_3 Pin=R4-2
Added Pin To Net: NetName=NetJ9_11 Pin=R8-1
Added Pin To Net: NetName=MGND Pin=R8-2
Added Pin To Net: NetName=PGND Pin=U4-1
Added Pin To Net: NetName=MGND Pin=U4-3
Added Pin To Net: NetName=NetR26_2 Pin=U4-4
Added Pin To Net: NetName=NetU4_2 Pin=U4-2
Added Pin To Net: NetName=NetU4_2 Pin=X1-2
Added Net: Name=NetU4_2
Added Member To Class: ClassName=VC and AUX Power Member=Component R4 10
Added Member To Class: ClassName=VC and AUX Power Member=Component R8 Resistor
