Removed Pin From Net: NetName=MGND Pin=R4-3
Change Component Designator: OldDesignator=J? NewDesignator=J9
Added Component: Designator=TP1(Test Point)
Added Component: Designator=TP2(Test Point)
Added Component: Designator=TP3(Test Point)
Added Pin To Net: NetName=MGND Pin=TP1-1
Added Pin To Net: NetName=NetC1_2 Pin=TP2-1
Added Pin To Net: NetName=5V Pin=TP3-1
Change Net Name : Old Net Name=NetJ?_4 New Net Name=NetJ9_4
Change Net Name : Old Net Name=NetJ?_7 New Net Name=NetJ9_7
Change Net Name : Old Net Name=NetJ?_8 New Net Name=NetJ9_8
Change Net Name : Old Net Name=NetJ?_11 New Net Name=NetJ9_11
Change Net Name : Old Net Name=NetJ?_13 New Net Name=NetJ9_13
Change Net Name : Old Net Name=NetJ?_19 New Net Name=NetJ9_19
Change Net Name : Old Net Name=NetJ?_20 New Net Name=NetJ9_20
Change Net Name : Old Net Name=NetJ?_67 New Net Name=NetJ9_67
Added Member To Class: ClassName=VC and AUX Power Member=Component TP1 Test Point
Added Member To Class: ClassName=VC and AUX Power Member=Component TP2 Test Point
Added Member To Class: ClassName=VC and AUX Power Member=Component TP3 Test Point
