Removed Pin From Net: NetName=MGND Pin=U1-0
Change Component Footprint: Designator=C10 Old Footprint=0603_B New Footprint=1206
Added Component: Designator=15V TVS(TVS Diode)
Add component. Clean all parameters for all variants
Added Pin To Net: NetName=MGND Pin=15V TVS-1
Added Pin To Net: NetName=HEATSINK Pin=U1-0
Added Member To Class: ClassName=Relay Interfaces Member=Component 15V TVS D10
