Removed Pin From Net: NetName=MGND Pin=15V TVS-1
Removed Member From Class: ClassName=Relay Interfaces Member=15V TVS
Added Component: Designator=D10(TVS Diode)
Add component. Clean all parameters for all variants
Add component (AddParameter): Name = "ComponentLink1Description"; Value = "Datasheet"; VariantName = "[No Variations]"
Add component (AddParameter): Name = "ComponentLink1URL"; Value = "http://www.bourns.com/data/global/pdfs/1.5SMC.pdf"; VariantName = "[No Variations]"
Added Pin To Net: NetName=MGND Pin=D10-1
Added Pin To Net: NetName=Net15V TVS_3 Pin=D10-2
Change Net Name : Old Net Name=Net15V TVS_3 New Net Name=NetD1_1
Added Member To Class: ClassName=Relay Interfaces Member=Component D10 15V TVS
