G04*
G04 #@! TF.GenerationSoftware,Altium Limited,Altium Designer,18.0.11 (651)*
G04*
G04 Layer_Physical_Order=1*
G04 Layer_Color=255*
%FSLAX44Y44*%
%MOMM*%
G71*
G01*
G75*
%ADD10C,0.2540*%
%ADD14C,0.1524*%
%ADD27C,0.7620*%
%ADD28R,3.0000X4.8000*%
%ADD29R,1.5000X0.3000*%
%ADD30R,2.7500X1.2000*%
%ADD31R,1.4000X1.0000*%
%ADD32O,0.6000X1.5000*%
%ADD33R,0.6000X1.5000*%
%ADD34R,4.2400X3.8100*%
%ADD35R,1.2500X0.8000*%
%ADD36R,0.9600X1.0000*%
%ADD37R,1.5000X1.8000*%
%ADD38R,1.8500X2.5000*%
%ADD39R,0.8000X1.0000*%
%ADD40R,1.6000X1.2200*%
%ADD41R,1.0000X0.9600*%
%ADD42R,1.8000X1.5000*%
%ADD43R,2.5000X1.8500*%
%ADD44R,3.8100X4.2400*%
%ADD45R,3.8100X2.3200*%
%ADD46R,9.6500X11.0000*%
%ADD47R,2.3200X3.8100*%
%ADD48R,11.0000X9.6500*%
%ADD49R,3.1000X5.0000*%
%ADD50R,0.6000X1.0000*%
%ADD51R,2.2000X0.6000*%
%ADD52R,4.0000X1.1000*%
%ADD53R,10.4100X10.8000*%
%ADD54R,2.1600X0.9100*%
%ADD55R,3.8100X1.6500*%
%ADD56R,8.5100X7.8700*%
%ADD114C,1.5000*%
%ADD115C,0.5000*%
%ADD116C,2.0000*%
%ADD117C,1.0000*%
%ADD118C,0.2550*%
%ADD119C,2.5000*%
%ADD120C,1.3000*%
%ADD121C,1.2700*%
%ADD122C,1.6000*%
%ADD123C,2.0000*%
%ADD124C,1.5000*%
%ADD125C,1.5240*%
%ADD126C,3.5000*%
%ADD127C,0.9000*%
%ADD128C,3.0000*%
%ADD129R,3.0000X3.0000*%
%ADD130C,4.0000*%
%ADD131C,2.9000*%
%ADD132R,2.9000X2.9000*%
%ADD133C,3.7000*%
%ADD134R,2.9000X2.9000*%
%ADD135C,3.8100*%
%ADD136C,1.6000*%
%ADD137R,1.6000X1.6000*%
%ADD138R,1.6000X1.6000*%
%ADD139C,2.5400*%
%ADD140C,5.0000*%
%ADD141C,5.5626*%
G04:AMPARAMS|DCode=142|XSize=6.35mm|YSize=5.588mm|CornerRadius=1.397mm|HoleSize=0mm|Usage=FLASHONLY|Rotation=0.000|XOffset=0mm|YOffset=0mm|HoleType=Round|Shape=RoundedRectangle|*
%AMROUNDEDRECTD142*
21,1,6.3500,2.7940,0,0,0.0*
21,1,3.5560,5.5880,0,0,0.0*
1,1,2.7940,1.7780,-1.3970*
1,1,2.7940,-1.7780,-1.3970*
1,1,2.7940,-1.7780,1.3970*
1,1,2.7940,1.7780,1.3970*
%
%ADD142ROUNDEDRECTD142*%
G04:AMPARAMS|DCode=143|XSize=6.35mm|YSize=6.35mm|CornerRadius=1.5875mm|HoleSize=0mm|Usage=FLASHONLY|Rotation=0.000|XOffset=0mm|YOffset=0mm|HoleType=Round|Shape=RoundedRectangle|*
%AMROUNDEDRECTD143*
21,1,6.3500,3.1750,0,0,0.0*
21,1,3.1750,6.3500,0,0,0.0*
1,1,3.1750,1.5875,-1.5875*
1,1,3.1750,-1.5875,-1.5875*
1,1,3.1750,-1.5875,1.5875*
1,1,3.1750,1.5875,1.5875*
%
%ADD143ROUNDEDRECTD143*%
%ADD144C,1.0000*%
%ADD145R,3.0000X3.0000*%
%ADD146C,2.2860*%
%ADD147C,1.2700*%
%ADD148C,8.8900*%
%ADD149C,1.3000*%
G36*
X994313Y1225668D02*
X994131Y1224280D01*
X994486Y1221578D01*
X995529Y1219060D01*
X997188Y1216898D01*
X999350Y1215239D01*
X1001868Y1214196D01*
X1004570Y1213841D01*
X1007272Y1214196D01*
X1009790Y1215239D01*
X1011952Y1216898D01*
X1012518Y1217637D01*
X1046794D01*
X1066851Y1197580D01*
X1066521Y1195070D01*
X1066876Y1192368D01*
X1067303Y1191339D01*
X1066597Y1190283D01*
X1027430D01*
X1025374Y1189874D01*
X1023631Y1188709D01*
X1016109Y1181188D01*
X1014936Y1181674D01*
Y1192135D01*
X1015762Y1192768D01*
X1017421Y1194930D01*
X1018464Y1197448D01*
X1018819Y1200150D01*
X1018464Y1202852D01*
X1017421Y1205370D01*
X1015762Y1207532D01*
X1013600Y1209191D01*
X1011082Y1210234D01*
X1008380Y1210589D01*
X1005678Y1210234D01*
X1003160Y1209191D01*
X1000998Y1207532D01*
X999339Y1205370D01*
X998296Y1202852D01*
X997941Y1200150D01*
X998296Y1197448D01*
X999339Y1194930D01*
X1000998Y1192768D01*
X1001824Y1192135D01*
Y1171796D01*
X974552D01*
X974066Y1172969D01*
X975350Y1174252D01*
X976514Y1175996D01*
X976923Y1178052D01*
X976514Y1180108D01*
X975350Y1181852D01*
X973606Y1183016D01*
X971550Y1183425D01*
X969494Y1183016D01*
X967750Y1181852D01*
X962671Y1176771D01*
X961506Y1175028D01*
X961097Y1172972D01*
Y1151369D01*
X958688Y1151052D01*
X958635Y1151030D01*
X957365Y1151878D01*
Y1239901D01*
X956956Y1241957D01*
X955791Y1243700D01*
X952549Y1246943D01*
X953035Y1248117D01*
X971864D01*
X994313Y1225668D01*
D02*
G37*
G36*
X1186190Y1143010D02*
X1187934Y1141846D01*
X1189990Y1141437D01*
X1542094D01*
X1725637Y957895D01*
Y563566D01*
X1672601Y510530D01*
X1671436Y508786D01*
X1671027Y506730D01*
Y439915D01*
X1642281Y411169D01*
X1641794Y411371D01*
X1638760Y411770D01*
X1635727Y411371D01*
X1632900Y410200D01*
X1630473Y408338D01*
X1628610Y405910D01*
X1627439Y403083D01*
X1627040Y400050D01*
X1627439Y397017D01*
X1628610Y394190D01*
X1630473Y391763D01*
X1632900Y389900D01*
X1635727Y388729D01*
X1638760Y388330D01*
X1641794Y388729D01*
X1644620Y389900D01*
X1647048Y391763D01*
X1648910Y394190D01*
X1650081Y397017D01*
X1650480Y400050D01*
X1650081Y403083D01*
X1649879Y403570D01*
X1680199Y433890D01*
X1681364Y435634D01*
X1681773Y437690D01*
Y484650D01*
X1683043Y484713D01*
X1683080Y484334D01*
X1683436Y480729D01*
X1684722Y476488D01*
X1686811Y472579D01*
X1689623Y469153D01*
X1693049Y466341D01*
X1696958Y464252D01*
X1701199Y462966D01*
X1705610Y462531D01*
X1710021Y462966D01*
X1714262Y464252D01*
X1718171Y466341D01*
X1721597Y469153D01*
X1724409Y472579D01*
X1726498Y476488D01*
X1727784Y480729D01*
X1728219Y485140D01*
X1727784Y489551D01*
X1726498Y493792D01*
X1724409Y497701D01*
X1721597Y501127D01*
X1718171Y503939D01*
X1714262Y506028D01*
X1710021Y507314D01*
X1705610Y507749D01*
X1701199Y507314D01*
X1696958Y506028D01*
X1693049Y503939D01*
X1689623Y501127D01*
X1686811Y497701D01*
X1684722Y493792D01*
X1683436Y489551D01*
X1683080Y485946D01*
X1683043Y485567D01*
X1681773Y485630D01*
Y504504D01*
X1734527Y557258D01*
X1735642Y556907D01*
X1735797Y556789D01*
Y474686D01*
X1672280Y411169D01*
X1671794Y411371D01*
X1668760Y411770D01*
X1665727Y411371D01*
X1662900Y410200D01*
X1660473Y408338D01*
X1658610Y405910D01*
X1657439Y403083D01*
X1657040Y400050D01*
X1657439Y397017D01*
X1658610Y394190D01*
X1660473Y391763D01*
X1662900Y389900D01*
X1665727Y388729D01*
X1668760Y388330D01*
X1671794Y388729D01*
X1674620Y389900D01*
X1677048Y391763D01*
X1678910Y394190D01*
X1680081Y397017D01*
X1680480Y400050D01*
X1680081Y403083D01*
X1679879Y403570D01*
X1744969Y468660D01*
X1745957Y470138D01*
X1747227Y469882D01*
Y263183D01*
X1526928D01*
X1526519Y264386D01*
X1527122Y264848D01*
X1546172Y283898D01*
X1548015Y286300D01*
X1549174Y289098D01*
X1549569Y292100D01*
Y305256D01*
X1549661Y305477D01*
X1550074Y308610D01*
X1549661Y311743D01*
X1548452Y314662D01*
X1546528Y317169D01*
X1544022Y319092D01*
X1542063Y319903D01*
X1541765Y321401D01*
X1562682Y342318D01*
X1564525Y344720D01*
X1565684Y347518D01*
X1566079Y350520D01*
Y377190D01*
X1565684Y380192D01*
X1564525Y382990D01*
X1562682Y385392D01*
X1522899Y425175D01*
Y453665D01*
X1525337Y456103D01*
X1526540Y455510D01*
X1526261Y453390D01*
X1526616Y450688D01*
X1527622Y448260D01*
Y445710D01*
X1525480D01*
Y425510D01*
X1549480D01*
Y445710D01*
X1545778D01*
Y448260D01*
X1546784Y450688D01*
X1547139Y453390D01*
X1546784Y456092D01*
X1545741Y458610D01*
X1544082Y460772D01*
X1541920Y462431D01*
X1539402Y463474D01*
X1536700Y463829D01*
X1534580Y463550D01*
X1533987Y464753D01*
X1544045Y474811D01*
X1562155D01*
X1564465Y471995D01*
X1567283Y469683D01*
X1570496Y467966D01*
X1573984Y466908D01*
X1577610Y466550D01*
X1581237Y466908D01*
X1584724Y467966D01*
X1587938Y469683D01*
X1590755Y471995D01*
X1593067Y474812D01*
X1594785Y478026D01*
X1595843Y481513D01*
X1596200Y485140D01*
X1595843Y488767D01*
X1594785Y492254D01*
X1593067Y495468D01*
X1590755Y498285D01*
X1587938Y500597D01*
X1584724Y502314D01*
X1581237Y503372D01*
X1577610Y503730D01*
X1573984Y503372D01*
X1570496Y502314D01*
X1567283Y500597D01*
X1564465Y498285D01*
X1564239Y498009D01*
X1539240D01*
X1536238Y497614D01*
X1533440Y496455D01*
X1531038Y494612D01*
X1503098Y466672D01*
X1501255Y464270D01*
X1500096Y461472D01*
X1499701Y458470D01*
Y420370D01*
X1500096Y417368D01*
X1501255Y414570D01*
X1503098Y412168D01*
X1506393Y408873D01*
X1505800Y407670D01*
X1503680Y407949D01*
X1500978Y407594D01*
X1498460Y406551D01*
X1496298Y404892D01*
X1496037Y404551D01*
X1494622Y404446D01*
X1493900Y405133D01*
Y414130D01*
X1481113D01*
Y421530D01*
X1483740D01*
Y439530D01*
X1474948D01*
X1474462Y440703D01*
X1520179Y486421D01*
X1521344Y488164D01*
X1521753Y490220D01*
Y508000D01*
X1521344Y510056D01*
X1520179Y511800D01*
X1513988Y517991D01*
X1514514Y519261D01*
X1592855D01*
X1614110Y498006D01*
Y467194D01*
X1594125Y447209D01*
X1576560D01*
X1573558Y446814D01*
X1570893Y445710D01*
X1564560D01*
Y425510D01*
X1570893D01*
X1573558Y424406D01*
X1576560Y424011D01*
X1598930D01*
X1601932Y424406D01*
X1604730Y425565D01*
X1607132Y427408D01*
X1636342Y456618D01*
X1638185Y459020D01*
X1639344Y461818D01*
X1639739Y464820D01*
X1639739Y464820D01*
Y466640D01*
X1651110D01*
Y503640D01*
X1639237D01*
X1638185Y506180D01*
X1636342Y508582D01*
X1605862Y539062D01*
X1603460Y540905D01*
X1600662Y542064D01*
X1597660Y542459D01*
X1518645D01*
X1487339Y573765D01*
Y645160D01*
X1487339Y645160D01*
X1486944Y648162D01*
X1485785Y650960D01*
X1483942Y653362D01*
X1450922Y686382D01*
X1448520Y688225D01*
X1445722Y689384D01*
X1442720Y689779D01*
X1399265D01*
X1383612Y705432D01*
X1381210Y707275D01*
X1378412Y708434D01*
X1375410Y708829D01*
X1372408Y708434D01*
X1369610Y707275D01*
X1367208Y705432D01*
X1365365Y703030D01*
X1364206Y700232D01*
X1363811Y697230D01*
X1364206Y694228D01*
X1365365Y691430D01*
X1367208Y689028D01*
X1386258Y669978D01*
X1388660Y668135D01*
X1391458Y666976D01*
X1394460Y666581D01*
X1437915D01*
X1443587Y660909D01*
X1442778Y659922D01*
X1442236Y660284D01*
X1440180Y660693D01*
X1328106D01*
X1299200Y689600D01*
X1297456Y690764D01*
X1295400Y691173D01*
X1205112D01*
X1204550Y692312D01*
X1205035Y692943D01*
X1205891Y695011D01*
X1206183Y697230D01*
X1205891Y699449D01*
X1205035Y701517D01*
X1203672Y703292D01*
X1201897Y704655D01*
X1199829Y705511D01*
X1197610Y705803D01*
X1195391Y705511D01*
X1193323Y704655D01*
X1191548Y703292D01*
X1190185Y701517D01*
X1189329Y699449D01*
X1189206Y698519D01*
X1187865Y698064D01*
X1142609Y743319D01*
X1140866Y744484D01*
X1138810Y744893D01*
X1083220D01*
Y748520D01*
X1070521D01*
Y752534D01*
X1102349Y784362D01*
X1103514Y786106D01*
X1103923Y788162D01*
Y862838D01*
X1103514Y864894D01*
X1102349Y866637D01*
X1092911Y876076D01*
X1093241Y878586D01*
X1092886Y881288D01*
X1091843Y883806D01*
X1090184Y885968D01*
X1088022Y887627D01*
X1085693Y888592D01*
X1085148Y889843D01*
X1085585Y890281D01*
X1086750Y892024D01*
X1087159Y894080D01*
Y1059748D01*
X1100572Y1073160D01*
X1101736Y1074904D01*
X1102145Y1076960D01*
Y1096518D01*
X1101736Y1098574D01*
X1100572Y1100318D01*
X1098502Y1102387D01*
Y1112012D01*
X1098279Y1113709D01*
X1097624Y1115290D01*
X1096582Y1116648D01*
X1095224Y1117690D01*
X1093643Y1118345D01*
X1091946Y1118568D01*
X1090249Y1118345D01*
X1088668Y1117690D01*
X1087310Y1116648D01*
X1086268Y1115290D01*
X1085613Y1113709D01*
X1085390Y1112012D01*
Y1102133D01*
X1081822Y1098565D01*
X1080406Y1098945D01*
X1079742Y1100549D01*
X1078299Y1102429D01*
X1076419Y1103872D01*
X1074230Y1104778D01*
X1071880Y1105088D01*
X1069530Y1104778D01*
X1069465Y1104751D01*
X1068320Y1105614D01*
X1068429Y1106284D01*
X1069594Y1106516D01*
X1071338Y1107681D01*
X1087314Y1123657D01*
X1095558D01*
X1096459Y1121480D01*
X1098118Y1119318D01*
X1100280Y1117659D01*
X1102798Y1116616D01*
X1105500Y1116261D01*
X1108202Y1116616D01*
X1110720Y1117659D01*
X1112882Y1119318D01*
X1114541Y1121480D01*
X1115584Y1123998D01*
X1115939Y1126700D01*
X1115584Y1129402D01*
X1114541Y1131920D01*
X1112882Y1134082D01*
X1110720Y1135741D01*
X1108202Y1136784D01*
X1105500Y1137139D01*
X1102798Y1136784D01*
X1100280Y1135741D01*
X1098383Y1134285D01*
X1097788Y1134403D01*
X1094710D01*
X1094148Y1135542D01*
X1094891Y1136510D01*
X1095934Y1139028D01*
X1096289Y1141730D01*
X1095934Y1144432D01*
X1094891Y1146950D01*
X1093232Y1149112D01*
X1091070Y1150771D01*
X1088552Y1151814D01*
X1085850Y1152169D01*
X1083148Y1151814D01*
X1080630Y1150771D01*
X1078468Y1149112D01*
X1076809Y1146950D01*
X1075766Y1144432D01*
X1075411Y1141730D01*
X1075741Y1139220D01*
X1069084Y1132563D01*
X1067814Y1133089D01*
Y1146796D01*
X1063990D01*
X1063153Y1147751D01*
X1063196Y1148080D01*
Y1157947D01*
X1114104D01*
X1132547Y1139504D01*
Y1083310D01*
X1132956Y1081254D01*
X1134120Y1079510D01*
X1135864Y1078346D01*
X1137920Y1077937D01*
X1139976Y1078346D01*
X1141720Y1079510D01*
X1142884Y1081254D01*
X1143293Y1083310D01*
Y1141730D01*
X1142884Y1143786D01*
X1141720Y1145529D01*
X1125126Y1162123D01*
X1125611Y1163297D01*
X1165904D01*
X1186190Y1143010D01*
D02*
G37*
G36*
X767136Y1266190D02*
X766554Y1266074D01*
X764810Y1264910D01*
X713700Y1213800D01*
X712536Y1212056D01*
X712127Y1210000D01*
Y1198000D01*
X710500D01*
Y1175000D01*
X724500D01*
X724500Y1175000D01*
Y1175000D01*
X725747Y1174779D01*
X726401Y1173801D01*
X731500Y1168700D01*
X733244Y1167536D01*
X735300Y1167127D01*
X747500D01*
X749556Y1167536D01*
X751300Y1168700D01*
X768486Y1185887D01*
X835627D01*
X837168Y1183878D01*
X839330Y1182219D01*
X841848Y1181176D01*
X844550Y1180821D01*
X847252Y1181176D01*
X849770Y1182219D01*
X851932Y1183878D01*
X853591Y1186040D01*
X854634Y1188558D01*
X854989Y1191260D01*
X854634Y1193962D01*
X853591Y1196480D01*
X851932Y1198642D01*
X850683Y1199600D01*
X851114Y1200870D01*
X861050D01*
Y1227370D01*
X828050D01*
Y1200870D01*
X837986D01*
X838417Y1199600D01*
X837168Y1198642D01*
X835627Y1196633D01*
X766260D01*
X764204Y1196224D01*
X762461Y1195060D01*
X745274Y1177873D01*
X737526D01*
X736495Y1178904D01*
X737020Y1180173D01*
X737260Y1182000D01*
Y1191000D01*
X737020Y1192827D01*
X736314Y1194530D01*
X735192Y1195992D01*
X733730Y1197114D01*
X732027Y1197820D01*
X730200Y1198060D01*
X728373Y1197820D01*
X726670Y1197114D01*
X725770Y1196424D01*
X724500Y1197050D01*
Y1198000D01*
X722873D01*
Y1207774D01*
X770836Y1255737D01*
X823568D01*
X824054Y1254563D01*
X796861Y1227370D01*
X782050D01*
Y1200870D01*
X815050D01*
Y1227370D01*
X813718D01*
X813232Y1228543D01*
X832806Y1248117D01*
X886561D01*
X887047Y1246943D01*
X877580Y1237477D01*
X876416Y1235734D01*
X876007Y1233678D01*
Y1202215D01*
X873998Y1200674D01*
X872339Y1198512D01*
X871296Y1195994D01*
X870941Y1193292D01*
X871296Y1190590D01*
X872339Y1188072D01*
X873998Y1185910D01*
X876007Y1184369D01*
Y1119700D01*
X868380D01*
Y1096700D01*
X889977D01*
Y1092396D01*
X885281Y1087700D01*
X868380D01*
Y1064700D01*
X874451D01*
X874882Y1063430D01*
X873998Y1062752D01*
X872339Y1060590D01*
X871296Y1058072D01*
X870941Y1055370D01*
X871296Y1052668D01*
X872339Y1050150D01*
X873998Y1047988D01*
X876007Y1046447D01*
Y1038420D01*
X868380D01*
Y1015420D01*
X894380D01*
Y1038420D01*
X886753D01*
Y1046447D01*
X888762Y1047988D01*
X890421Y1050150D01*
X891464Y1052668D01*
X891819Y1055370D01*
X891464Y1058072D01*
X890421Y1060590D01*
X888762Y1062752D01*
X887878Y1063430D01*
X888309Y1064700D01*
X894380D01*
Y1081601D01*
X898867Y1086088D01*
X899982Y1085737D01*
X900137Y1085619D01*
Y1063500D01*
Y959645D01*
X898128Y958104D01*
X896469Y955942D01*
X895426Y953424D01*
X895071Y950722D01*
X895426Y948020D01*
X896469Y945502D01*
X898128Y943340D01*
X900137Y941799D01*
Y866660D01*
X883391Y849914D01*
X882226Y848171D01*
X881817Y846115D01*
Y817150D01*
X882226Y815094D01*
X883391Y813351D01*
X896518Y800223D01*
X896032Y799050D01*
X889869D01*
X887179Y801739D01*
X885436Y802904D01*
X883380Y803313D01*
X876210D01*
Y806940D01*
X858610D01*
Y788940D01*
Y772940D01*
X860715D01*
X861105Y771670D01*
X859639Y769760D01*
X858596Y767242D01*
X858241Y764540D01*
X858596Y761838D01*
X859639Y759320D01*
X861298Y757158D01*
X863460Y755499D01*
X865978Y754456D01*
X868680Y754101D01*
X871382Y754456D01*
X873900Y755499D01*
X876062Y757158D01*
X877721Y759320D01*
X878764Y761838D01*
X878881Y762733D01*
X880020Y763050D01*
Y763050D01*
X883627D01*
Y751526D01*
X875601Y743500D01*
X866998D01*
X832119Y778379D01*
X832498Y779149D01*
X832773Y779520D01*
X835751Y779912D01*
X838578Y781083D01*
X841005Y782946D01*
X842868Y785373D01*
X844039Y788200D01*
X844438Y791233D01*
X844039Y794267D01*
X842868Y797094D01*
X841005Y799521D01*
X838578Y801383D01*
X835751Y802554D01*
X832718Y802954D01*
X829684Y802554D01*
X826858Y801383D01*
X824430Y799521D01*
X822568Y797094D01*
X821878Y795428D01*
X820608Y795680D01*
Y818887D01*
X833988D01*
X837884Y819271D01*
X841630Y820407D01*
X845083Y822253D01*
X848109Y824737D01*
X850593Y827763D01*
X852439Y831216D01*
X853575Y834962D01*
X853959Y838858D01*
Y870608D01*
X853575Y874505D01*
X852439Y878251D01*
X850593Y881704D01*
X848109Y884730D01*
X845083Y887214D01*
X844761Y887386D01*
X844574Y888643D01*
X867207Y911275D01*
X868380Y910789D01*
Y908490D01*
X894380D01*
Y931490D01*
X885277D01*
X884891Y932760D01*
X885180Y932952D01*
X886344Y934696D01*
X886753Y936752D01*
Y951990D01*
X886344Y954046D01*
X885180Y955789D01*
X883436Y956954D01*
X881380Y957363D01*
X879324Y956954D01*
X877580Y955789D01*
X876416Y954046D01*
X876007Y951990D01*
Y936752D01*
X876416Y934696D01*
X877580Y932952D01*
X877869Y932760D01*
X877483Y931490D01*
X868380D01*
Y926546D01*
X866650D01*
X864953Y926323D01*
X863372Y925668D01*
X862014Y924626D01*
X827968Y890580D01*
X816723D01*
X814070Y890929D01*
X811417Y890580D01*
X802238D01*
X798342Y890196D01*
X794595Y889059D01*
X791142Y887214D01*
X788116Y884730D01*
X785632Y881704D01*
X783787Y878251D01*
X782650Y874505D01*
X782266Y870608D01*
Y838858D01*
X782650Y834962D01*
X783787Y831216D01*
X785632Y827763D01*
X788116Y824737D01*
X791142Y822253D01*
X794595Y820407D01*
X798342Y819271D01*
X802238Y818887D01*
X802452D01*
Y786130D01*
X802762Y783781D01*
X803669Y781591D01*
X805111Y779711D01*
X826436Y758387D01*
X825950Y757213D01*
X756540D01*
X754484Y756804D01*
X752741Y755639D01*
X751971Y754870D01*
X741770D01*
Y736870D01*
Y720870D01*
X751971D01*
X757821Y715021D01*
X759564Y713856D01*
X760178Y713734D01*
X760053Y712464D01*
X749890D01*
X747834Y712055D01*
X746091Y710890D01*
X712601Y677400D01*
X703873D01*
Y693420D01*
X703464Y695476D01*
X702299Y697219D01*
X699770Y699749D01*
Y736394D01*
X716280D01*
X717977Y736617D01*
X719558Y737272D01*
X720916Y738314D01*
X732579Y749977D01*
X733620Y751335D01*
X734275Y752916D01*
X734499Y754613D01*
Y763900D01*
X737804Y764694D01*
X742430Y766610D01*
X746700Y769227D01*
X750507Y772479D01*
X753760Y776286D01*
X756376Y780556D01*
X758292Y785182D01*
X759461Y790051D01*
X759854Y795043D01*
X759461Y800035D01*
X758292Y804904D01*
X756376Y809531D01*
X753760Y813800D01*
X750507Y817608D01*
X746700Y820860D01*
X742430Y823477D01*
X737804Y825393D01*
X732935Y826562D01*
X727943Y826955D01*
X722951Y826562D01*
X718082Y825393D01*
X713455Y823477D01*
X709186Y820860D01*
X705378Y817608D01*
X702126Y813800D01*
X700992Y811951D01*
X699770Y812295D01*
Y1038492D01*
X700943Y1038978D01*
X748801Y991121D01*
X750544Y989956D01*
X752600Y989547D01*
X790033D01*
X790488Y988277D01*
X788116Y986330D01*
X785632Y983304D01*
X783787Y979851D01*
X782650Y976105D01*
X782266Y972208D01*
Y940458D01*
X782650Y936562D01*
X783787Y932816D01*
X785632Y929363D01*
X788116Y926337D01*
X791142Y923853D01*
X794595Y922007D01*
X798342Y920871D01*
X802238Y920487D01*
X833988D01*
X837884Y920871D01*
X841630Y922007D01*
X845083Y923853D01*
X848109Y926337D01*
X850593Y929363D01*
X852439Y932816D01*
X853575Y936562D01*
X853959Y940458D01*
Y972208D01*
X853575Y976105D01*
X852439Y979851D01*
X850593Y983304D01*
X848109Y986330D01*
X845737Y988277D01*
X846192Y989547D01*
X868380D01*
Y983420D01*
X894380D01*
Y1006420D01*
X868380D01*
Y1000293D01*
X754826D01*
X699770Y1055349D01*
Y1100371D01*
X700992Y1100716D01*
X702126Y1098866D01*
X705378Y1095059D01*
X709186Y1091806D01*
X713455Y1089190D01*
X718082Y1087274D01*
X722951Y1086105D01*
X727943Y1085712D01*
X732935Y1086105D01*
X737804Y1087274D01*
X742430Y1089190D01*
X746700Y1091806D01*
X750507Y1095059D01*
X753760Y1098866D01*
X754277Y1099711D01*
X755499Y1099366D01*
Y1044225D01*
X754851Y1043380D01*
X753440Y1039975D01*
X752959Y1036320D01*
X753440Y1032665D01*
X754851Y1029260D01*
X757095Y1026335D01*
X760020Y1024091D01*
X763425Y1022680D01*
X767080Y1022199D01*
X770735Y1022680D01*
X774140Y1024091D01*
X777065Y1026335D01*
X778168Y1027772D01*
X779605Y1028875D01*
X781849Y1031800D01*
X782677Y1033798D01*
X784080Y1033867D01*
X785632Y1030963D01*
X788116Y1027937D01*
X791142Y1025453D01*
X794595Y1023607D01*
X798342Y1022471D01*
X802238Y1022087D01*
X833988D01*
X837884Y1022471D01*
X841630Y1023607D01*
X845083Y1025453D01*
X848109Y1027937D01*
X850593Y1030963D01*
X852439Y1034416D01*
X853575Y1038162D01*
X853959Y1042058D01*
Y1073808D01*
X853575Y1077705D01*
X852439Y1081451D01*
X850593Y1084904D01*
X848109Y1087930D01*
X845083Y1090414D01*
X841630Y1092259D01*
X837884Y1093396D01*
X833988Y1093780D01*
X826466D01*
Y1145630D01*
X831410D01*
Y1171630D01*
X808410D01*
Y1145630D01*
X813354D01*
Y1125213D01*
X812084Y1124961D01*
X811118Y1127293D01*
X809255Y1129721D01*
X806828Y1131583D01*
X804001Y1132754D01*
X800968Y1133154D01*
X797934Y1132754D01*
X795107Y1131583D01*
X792680Y1129721D01*
X790818Y1127293D01*
X789647Y1124467D01*
X789247Y1121433D01*
X789647Y1118400D01*
X790818Y1115573D01*
X792680Y1113146D01*
X795107Y1111283D01*
X797934Y1110113D01*
X800968Y1109713D01*
X804001Y1110113D01*
X806828Y1111283D01*
X809255Y1113146D01*
X811118Y1115573D01*
X812084Y1117906D01*
X813354Y1117653D01*
Y1093780D01*
X802238D01*
X798342Y1093396D01*
X794595Y1092259D01*
X791142Y1090414D01*
X788116Y1087930D01*
X785632Y1084904D01*
X785011Y1083741D01*
X783741Y1084059D01*
Y1106770D01*
X785659Y1109270D01*
X787070Y1112675D01*
X787551Y1116330D01*
X787070Y1119985D01*
X785659Y1123390D01*
X783415Y1126315D01*
X780490Y1128559D01*
X777085Y1129970D01*
X773430Y1130451D01*
X770400Y1130052D01*
X769807Y1131255D01*
X784182Y1145630D01*
X799410D01*
Y1171630D01*
X776410D01*
Y1156402D01*
X755484Y1135475D01*
X754223Y1135625D01*
X753760Y1136380D01*
X750507Y1140188D01*
X746700Y1143440D01*
X742430Y1146057D01*
X737804Y1147973D01*
X732935Y1149142D01*
X727943Y1149535D01*
X722951Y1149142D01*
X718082Y1147973D01*
X713455Y1146057D01*
X709186Y1143440D01*
X705378Y1140188D01*
X702126Y1136380D01*
X700992Y1134531D01*
X699770Y1134875D01*
Y1206521D01*
X731914Y1238665D01*
X732027Y1238680D01*
X733730Y1239386D01*
X735192Y1240508D01*
X736314Y1241970D01*
X737020Y1243673D01*
X737260Y1245500D01*
Y1254500D01*
X737020Y1256327D01*
X736314Y1258030D01*
X735192Y1259492D01*
X733730Y1260614D01*
X732027Y1261320D01*
X730200Y1261560D01*
X728373Y1261320D01*
X726670Y1260614D01*
X725208Y1259492D01*
X724637Y1258748D01*
X723063D01*
X722492Y1259492D01*
X721030Y1260614D01*
X719327Y1261320D01*
X717500Y1261560D01*
X715673Y1261320D01*
X713970Y1260614D01*
X712507Y1259492D01*
X711385Y1258030D01*
X710680Y1256327D01*
X710555Y1255373D01*
X699770D01*
Y1267460D01*
X767011D01*
X767136Y1266190D01*
D02*
G37*
G36*
X1062443Y971853D02*
X1056640D01*
X1054584Y971444D01*
X1052840Y970280D01*
X1051676Y968536D01*
X1051267Y966480D01*
X1051676Y964424D01*
X1052840Y962681D01*
X1054584Y961516D01*
X1056640Y961107D01*
X1062443D01*
Y912562D01*
X1018550Y868670D01*
X1017386Y866926D01*
X1016977Y864870D01*
Y860771D01*
X1015910Y860280D01*
X998310D01*
Y857847D01*
X997040Y857321D01*
X994741Y859619D01*
X992998Y860784D01*
X991960Y860991D01*
Y863820D01*
X977431D01*
Y867918D01*
X977022Y869974D01*
X975857Y871718D01*
X974114Y872882D01*
X972058Y873291D01*
X970002Y872882D01*
X969717Y872692D01*
X968907Y873678D01*
X996636Y901407D01*
X1019777D01*
X1021318Y899398D01*
X1023480Y897739D01*
X1025998Y896696D01*
X1028700Y896341D01*
X1031402Y896696D01*
X1033920Y897739D01*
X1036082Y899398D01*
X1037741Y901560D01*
X1038784Y904078D01*
X1039139Y906780D01*
X1038784Y909482D01*
X1037741Y912000D01*
X1036082Y914162D01*
X1033920Y915821D01*
X1031402Y916864D01*
X1030042Y917043D01*
X1029407Y918142D01*
X1029894Y919318D01*
X1030249Y922020D01*
X1029894Y924722D01*
X1028851Y927240D01*
X1027192Y929402D01*
X1025030Y931061D01*
X1022512Y932104D01*
X1019810Y932459D01*
X1019141Y932371D01*
X1018579Y933510D01*
X1022339Y937271D01*
X1023504Y939014D01*
X1023913Y941070D01*
Y948007D01*
X1025116Y948415D01*
X1025362Y948094D01*
X1027764Y946251D01*
X1030562Y945092D01*
X1033564Y944697D01*
X1036566Y945092D01*
X1039364Y946251D01*
X1041766Y948094D01*
X1043609Y950496D01*
X1044768Y953294D01*
X1045163Y956296D01*
X1044768Y959298D01*
X1043609Y962096D01*
X1041766Y964498D01*
X1039364Y966341D01*
X1036566Y967500D01*
X1033564Y967895D01*
X1030562Y967500D01*
X1027764Y966341D01*
X1025612Y964689D01*
X1024702Y964892D01*
X1024265Y965154D01*
X1024177Y965778D01*
X1047739Y989341D01*
X1048904Y991084D01*
X1049313Y993140D01*
Y995796D01*
X1062443D01*
Y971853D01*
D02*
G37*
G36*
X1074127Y843059D02*
Y841250D01*
X1074536Y839194D01*
X1075701Y837451D01*
X1078241Y834911D01*
X1079984Y833746D01*
X1080860Y833571D01*
Y829710D01*
X1084287D01*
Y794706D01*
X1065072Y775491D01*
X1064115Y776330D01*
X1065681Y778370D01*
X1066724Y780888D01*
X1067079Y783590D01*
X1066724Y786292D01*
X1065681Y788810D01*
X1064022Y790972D01*
X1061860Y792631D01*
X1059342Y793674D01*
X1056640Y794029D01*
X1054480Y793745D01*
X1053210Y794608D01*
Y795130D01*
X1049778D01*
X1049009Y796280D01*
X1043721Y801568D01*
X1043050Y802530D01*
X1043050D01*
X1043050Y802530D01*
Y820530D01*
X1040423D01*
Y826550D01*
X1045300D01*
Y838161D01*
X1055050D01*
X1060461Y832751D01*
X1062204Y831586D01*
X1064260Y831177D01*
X1066316Y831586D01*
X1068059Y832751D01*
X1069224Y834494D01*
X1069633Y836550D01*
X1069224Y838606D01*
X1068059Y840350D01*
X1066032Y842377D01*
X1066518Y843550D01*
X1073060D01*
X1074127Y843059D01*
D02*
G37*
G36*
X935697Y845090D02*
X919390D01*
Y829090D01*
X924267D01*
Y823070D01*
X921640D01*
Y820587D01*
X920370Y820202D01*
X920231Y820409D01*
X912991Y827650D01*
X911248Y828814D01*
X909192Y829223D01*
X895350D01*
X893833Y828922D01*
X892808Y829580D01*
X893005Y830850D01*
X904150D01*
Y834477D01*
X904620D01*
X906676Y834886D01*
X908419Y836050D01*
X921459Y849090D01*
X935697D01*
Y845090D01*
D02*
G37*
G36*
X895350Y818477D02*
X906966D01*
X912633Y812811D01*
X914376Y811646D01*
X916432Y811237D01*
X918488Y811646D01*
X920231Y812811D01*
X920370Y813018D01*
X921640Y812633D01*
Y805070D01*
X935697D01*
Y797670D01*
X931800D01*
Y779670D01*
X938052D01*
X938538Y778497D01*
X915984Y755943D01*
X913130D01*
X911074Y755534D01*
X909331Y754370D01*
X899171Y744210D01*
X898006Y742466D01*
X897597Y740410D01*
Y731206D01*
X887623Y721232D01*
X886450Y721718D01*
Y739151D01*
X892800Y745500D01*
X893964Y747244D01*
X894373Y749300D01*
Y763050D01*
X900520D01*
Y779050D01*
X880020D01*
Y767412D01*
X878764Y767242D01*
X877721Y769760D01*
X876244Y771684D01*
X876210Y772940D01*
X876210Y772940D01*
X876210Y772940D01*
Y788940D01*
Y792567D01*
X880020D01*
Y783050D01*
X900520D01*
Y794562D01*
X901693Y795048D01*
X911480Y785261D01*
Y779670D01*
X927480D01*
Y797670D01*
X914269D01*
X894610Y817329D01*
X895235Y818500D01*
X895350Y818477D01*
D02*
G37*
G36*
X286846Y1266190D02*
X286391Y1266099D01*
X280377Y1264058D01*
X274681Y1261249D01*
X269400Y1257720D01*
X264625Y1253533D01*
X260438Y1248758D01*
X256909Y1243477D01*
X254100Y1237781D01*
X252059Y1231767D01*
X250819Y1225538D01*
X250404Y1219200D01*
X250819Y1212862D01*
X252059Y1206633D01*
X254100Y1200619D01*
X256909Y1194923D01*
X260438Y1189642D01*
X264625Y1184867D01*
X269400Y1180680D01*
X274681Y1177151D01*
X280377Y1174342D01*
X286391Y1172300D01*
X292620Y1171061D01*
X298958Y1170646D01*
X305296Y1171061D01*
X311525Y1172300D01*
X317539Y1174342D01*
X318250Y1173349D01*
X312774Y1167873D01*
X295000D01*
X292944Y1167464D01*
X291201Y1166300D01*
X256201Y1131300D01*
X255036Y1129556D01*
X254627Y1127500D01*
Y1015000D01*
X255036Y1012944D01*
X256201Y1011200D01*
X271736Y995665D01*
Y972843D01*
X272083Y969321D01*
X273110Y965933D01*
X274779Y962812D01*
X277024Y960075D01*
X279761Y957830D01*
X282883Y956161D01*
X284313Y955727D01*
Y954400D01*
X282883Y953966D01*
X279761Y952297D01*
X277024Y950051D01*
X274779Y947315D01*
X273110Y944193D01*
X272083Y940806D01*
X271736Y937283D01*
Y909343D01*
X272083Y905821D01*
X273110Y902433D01*
X274779Y899312D01*
X277024Y896575D01*
X279761Y894330D01*
X282883Y892661D01*
X286270Y891633D01*
X289793Y891286D01*
X325353D01*
X328875Y891633D01*
X332263Y892661D01*
X335385Y894330D01*
X338121Y896575D01*
X340367Y899312D01*
X342035Y902433D01*
X343063Y905821D01*
X343410Y909343D01*
Y937283D01*
X343063Y940806D01*
X342035Y944193D01*
X340367Y947315D01*
X338121Y950051D01*
X335385Y952297D01*
X332263Y953966D01*
X330832Y954400D01*
Y955727D01*
X332263Y956161D01*
X335385Y957830D01*
X338121Y960075D01*
X340367Y962812D01*
X342035Y965933D01*
X343063Y969321D01*
X343410Y972843D01*
Y1000783D01*
X343063Y1004306D01*
X342035Y1007693D01*
X340367Y1010815D01*
X338121Y1013551D01*
X335385Y1015797D01*
X332263Y1017466D01*
X328875Y1018493D01*
X325353Y1018840D01*
X289793D01*
X286270Y1018493D01*
X282883Y1017466D01*
X279761Y1015797D01*
X277024Y1013551D01*
X274779Y1010815D01*
X274238Y1009803D01*
X272982Y1009617D01*
X265373Y1017226D01*
Y1125274D01*
X297226Y1157127D01*
X315000D01*
X317056Y1157536D01*
X318799Y1158701D01*
X404726Y1244627D01*
X684530D01*
Y1215683D01*
X537210D01*
X535154Y1215274D01*
X533410Y1214109D01*
X532246Y1212366D01*
X531837Y1210310D01*
X532246Y1208254D01*
X533410Y1206510D01*
X684530Y1055391D01*
Y749506D01*
X644720D01*
Y758490D01*
X621720D01*
Y734248D01*
X620547Y733762D01*
X612720Y741589D01*
Y758490D01*
X597492D01*
X585042Y770940D01*
X585092Y772209D01*
X585407Y772479D01*
X588660Y776286D01*
X591276Y780556D01*
X593192Y785182D01*
X594361Y790051D01*
X594754Y795043D01*
X594361Y800035D01*
X593192Y804904D01*
X591276Y809531D01*
X588660Y813800D01*
X585407Y817608D01*
X581600Y820860D01*
X577330Y823477D01*
X572704Y825393D01*
X568237Y826465D01*
Y1086201D01*
X572704Y1087274D01*
X577330Y1089190D01*
X581600Y1091806D01*
X585407Y1095059D01*
X588660Y1098866D01*
X591276Y1103136D01*
X593192Y1107762D01*
X594361Y1112631D01*
X594754Y1117623D01*
X594361Y1122615D01*
X593192Y1127485D01*
X591276Y1132111D01*
X588660Y1136380D01*
X585407Y1140188D01*
X581600Y1143440D01*
X577330Y1146057D01*
X572704Y1147973D01*
X567835Y1149142D01*
X562843Y1149535D01*
X557851Y1149142D01*
X552981Y1147973D01*
X548355Y1146057D01*
X544086Y1143440D01*
X540278Y1140188D01*
X537026Y1136380D01*
X534409Y1132111D01*
X532493Y1127485D01*
X531324Y1122615D01*
X530931Y1117623D01*
X531324Y1112631D01*
X532493Y1107762D01*
X534409Y1103136D01*
X537026Y1098866D01*
X540278Y1095059D01*
X544086Y1091806D01*
X548355Y1089190D01*
X552981Y1087274D01*
X557491Y1086191D01*
Y826476D01*
X552981Y825393D01*
X548355Y823477D01*
X544086Y820860D01*
X540278Y817608D01*
X537026Y813800D01*
X534409Y809531D01*
X532493Y804904D01*
X531324Y800035D01*
X530931Y795043D01*
X531324Y790051D01*
X532493Y785182D01*
X534409Y780556D01*
X537026Y776286D01*
X540278Y772479D01*
X544086Y769227D01*
X548355Y766610D01*
X552981Y764694D01*
X557851Y763525D01*
X562843Y763132D01*
X567835Y763525D01*
X572704Y764694D01*
X572733Y764706D01*
X589720Y747718D01*
Y732490D01*
X606621D01*
X620281Y718830D01*
X622024Y717666D01*
X624080Y717257D01*
X667064D01*
X684530Y699791D01*
Y633730D01*
X681990Y631190D01*
X251460D01*
X247553Y627283D01*
X246380Y627769D01*
Y1264920D01*
X248920Y1267460D01*
X286721D01*
X286846Y1266190D01*
D02*
G37*
G36*
X1183651Y675650D02*
X1185394Y674486D01*
X1187450Y674077D01*
X1274124D01*
X1291297Y656904D01*
Y640650D01*
X1284670D01*
Y616650D01*
X1303380D01*
X1303741Y615380D01*
X1248724Y560363D01*
X1235710D01*
X1233654Y559954D01*
X1231910Y558789D01*
X1228950Y555829D01*
X1174241Y555637D01*
X1158309Y571569D01*
X1156429Y573012D01*
X1154239Y573918D01*
X1151890Y574228D01*
X1100830D01*
X1100723Y574336D01*
X1101143Y575718D01*
X1102582Y576010D01*
X1128500D01*
Y600510D01*
X1105872D01*
X1086688Y637425D01*
X1087347Y638510D01*
X1101796D01*
X1106959Y633348D01*
Y628870D01*
X1107354Y625868D01*
X1108513Y623070D01*
X1110356Y620668D01*
X1112758Y618825D01*
X1115556Y617666D01*
X1118558Y617271D01*
X1121560Y617666D01*
X1124358Y618825D01*
X1126760Y620668D01*
X1128603Y623070D01*
X1129762Y625868D01*
X1130157Y628870D01*
Y638152D01*
X1129762Y641154D01*
X1129000Y642993D01*
Y663010D01*
X1082900D01*
Y644951D01*
X1081749Y644415D01*
X1080959Y645078D01*
X1078216Y646360D01*
X1075234Y646888D01*
X1072217Y646626D01*
X1069371Y645592D01*
X1067418Y644226D01*
X1066148Y644876D01*
Y653620D01*
X1065838Y655969D01*
X1064931Y658159D01*
X1063489Y660039D01*
X1047819Y675709D01*
X1045939Y677151D01*
X1043749Y678058D01*
X1041400Y678368D01*
X1015528D01*
X1014259Y681430D01*
X1012015Y684355D01*
X1009090Y686599D01*
X1005685Y688010D01*
X1002030Y688491D01*
X990600D01*
Y693475D01*
X990762Y693496D01*
X993280Y694539D01*
X995442Y696198D01*
X997101Y698360D01*
X998144Y700878D01*
X998461Y703287D01*
X1117756D01*
X1118594Y702332D01*
X1118591Y702310D01*
X1118946Y699608D01*
X1119989Y697090D01*
X1121648Y694928D01*
X1123810Y693269D01*
X1126328Y692226D01*
X1129030Y691871D01*
X1131732Y692226D01*
X1134250Y693269D01*
X1136412Y694928D01*
X1138071Y697090D01*
X1139114Y699608D01*
X1139469Y702310D01*
X1139114Y705012D01*
X1138071Y707530D01*
X1137328Y708498D01*
X1137890Y709637D01*
X1149664D01*
X1183651Y675650D01*
D02*
G37*
G36*
X1351280Y556260D02*
X1319703Y556149D01*
X1319215Y557321D01*
X1330272Y568378D01*
X1332115Y570780D01*
X1333274Y573578D01*
X1333669Y576580D01*
X1333669Y576580D01*
Y625295D01*
X1333761Y625517D01*
X1334173Y628650D01*
X1333761Y631783D01*
X1332552Y634702D01*
X1330629Y637209D01*
X1328122Y639132D01*
X1325325Y640290D01*
X1324904Y641193D01*
X1324784Y641545D01*
X1328106Y644867D01*
X1351280D01*
Y556260D01*
D02*
G37*
G36*
X891240Y542729D02*
X883831Y535320D01*
X875477D01*
X875092Y536590D01*
X876036Y537220D01*
X878829Y540014D01*
X879994Y541758D01*
X880403Y543814D01*
Y552450D01*
X879994Y554506D01*
X878935Y556091D01*
X879278Y557361D01*
X891240D01*
Y542729D01*
D02*
G37*
G36*
X871124Y556091D02*
X870066Y554506D01*
X869657Y552450D01*
Y546393D01*
X869530D01*
X867474Y545984D01*
X865730Y544819D01*
X864566Y543076D01*
X864157Y541020D01*
X864566Y538964D01*
X865730Y537220D01*
X866674Y536590D01*
X866289Y535320D01*
X854530D01*
Y528064D01*
X853548Y527258D01*
X853520Y527263D01*
X832030D01*
Y534020D01*
Y541469D01*
X847349Y554967D01*
X849340Y557249D01*
X849395Y557361D01*
X870782D01*
X871124Y556091D01*
D02*
G37*
G36*
X692171Y603250D02*
X675090Y586170D01*
X673926Y584426D01*
X673517Y582370D01*
Y550979D01*
X673926Y548922D01*
X675090Y547179D01*
X676937Y545333D01*
X676937Y545333D01*
X690070Y532199D01*
X690135Y531703D01*
X690790Y530122D01*
X691832Y528764D01*
X693190Y527722D01*
X693420Y527627D01*
Y488844D01*
X683535Y478959D01*
X558525D01*
X558112Y479372D01*
X555710Y481215D01*
X552912Y482374D01*
X549910Y482769D01*
X546908Y482374D01*
X544110Y481215D01*
X541708Y479372D01*
X539865Y476970D01*
X538706Y474172D01*
X538311Y471170D01*
X538706Y468168D01*
X539865Y465370D01*
X541708Y462968D01*
X545518Y459158D01*
X546415Y458470D01*
X545984Y457200D01*
X520770D01*
Y476450D01*
X528510D01*
Y526850D01*
X528510D01*
X528735Y528027D01*
X548640D01*
X550696Y528436D01*
X552439Y529600D01*
X567679Y544841D01*
X568844Y546584D01*
X569253Y548640D01*
Y582930D01*
X568844Y584986D01*
X567679Y586730D01*
X559679Y594729D01*
X558710Y595377D01*
Y599930D01*
X541110D01*
Y580303D01*
X528510D01*
Y590550D01*
X492077D01*
X479281Y603347D01*
X479767Y604520D01*
X691645D01*
X692171Y603250D01*
D02*
G37*
G36*
X931277Y507998D02*
Y468086D01*
X928501Y465310D01*
X918300D01*
Y447310D01*
Y431310D01*
X921727D01*
Y426466D01*
X921921Y425489D01*
X920879Y424219D01*
X916940D01*
X914884Y423810D01*
X913140Y422645D01*
X908315Y417820D01*
X907150Y416076D01*
X906741Y414020D01*
Y398018D01*
X907150Y395962D01*
X908315Y394218D01*
X911217Y391316D01*
Y390000D01*
X907919D01*
X893689Y404229D01*
X891946Y405394D01*
X889890Y405803D01*
X883606D01*
X881673Y407736D01*
Y431310D01*
X885100D01*
Y434937D01*
X892900D01*
Y431310D01*
X910500D01*
Y449310D01*
X894695D01*
X894227Y450186D01*
X894136Y450580D01*
X895234Y452224D01*
X895566Y453892D01*
X895953Y454012D01*
X896888Y454026D01*
X897900Y452510D01*
X899644Y451346D01*
X901700Y450937D01*
X903756Y451346D01*
X905499Y452510D01*
X906664Y454254D01*
X907073Y456310D01*
Y457514D01*
X912104Y462545D01*
X913268Y464288D01*
X913677Y466344D01*
Y468376D01*
X913268Y470432D01*
X912104Y472175D01*
X910360Y473340D01*
X908304Y473749D01*
X906248Y473340D01*
X904504Y472175D01*
X903340Y470432D01*
X902979Y468618D01*
X897900Y463540D01*
X896913Y462062D01*
X895643Y462318D01*
Y474024D01*
X930103Y508484D01*
X931277Y507998D01*
D02*
G37*
%LPC*%
G36*
X1617980Y1039139D02*
X1615278Y1038784D01*
X1612760Y1037741D01*
X1610598Y1036082D01*
X1608939Y1033920D01*
X1607896Y1031402D01*
X1607541Y1028700D01*
X1607896Y1025998D01*
X1608939Y1023480D01*
X1610470Y1021486D01*
X1610161Y1020216D01*
X1599704D01*
Y1014936D01*
X1574704D01*
Y1020216D01*
X1536704D01*
Y964216D01*
X1574704D01*
Y987718D01*
X1575974Y987970D01*
X1576722Y986164D01*
X1578645Y983658D01*
X1581152Y981734D01*
X1584071Y980525D01*
X1587204Y980113D01*
X1590337Y980525D01*
X1593256Y981734D01*
X1595762Y983658D01*
X1597686Y986164D01*
X1598434Y987970D01*
X1599704Y987718D01*
Y964216D01*
X1637704D01*
Y1020216D01*
X1625971D01*
X1625664Y1020770D01*
X1625490Y1021486D01*
X1627021Y1023480D01*
X1628064Y1025998D01*
X1628419Y1028700D01*
X1628064Y1031402D01*
X1627021Y1033920D01*
X1625362Y1036082D01*
X1623200Y1037741D01*
X1620682Y1038784D01*
X1617980Y1039139D01*
D02*
G37*
G36*
X1366520Y992021D02*
X1308100D01*
X1304445Y991540D01*
X1301040Y990129D01*
X1298115Y987885D01*
X1295871Y984960D01*
X1294460Y981555D01*
X1293979Y977900D01*
X1294460Y974245D01*
X1295871Y970840D01*
X1298115Y967915D01*
X1301040Y965671D01*
X1304445Y964260D01*
X1308100Y963779D01*
X1366520D01*
X1370175Y964260D01*
X1373580Y965671D01*
X1376505Y967915D01*
X1378749Y970840D01*
X1380160Y974245D01*
X1380641Y977900D01*
X1380160Y981555D01*
X1378749Y984960D01*
X1376505Y987885D01*
X1373580Y990129D01*
X1370175Y991540D01*
X1366520Y992021D01*
D02*
G37*
G36*
X1461770Y859941D02*
X1314450D01*
X1313578Y859826D01*
X1312699Y859832D01*
X1311293Y859656D01*
X1311292Y859656D01*
X1311292D01*
X1309327Y859143D01*
X1307726Y858726D01*
X1307725Y858725D01*
X1307725Y858725D01*
X1306048Y857772D01*
X1304521Y856903D01*
X1304521Y856903D01*
X1304521Y856903D01*
X1303266Y855665D01*
X1301897Y854314D01*
X1301897Y854314D01*
X1301897Y854314D01*
X1294974Y845412D01*
X1290943Y844190D01*
X1287207Y842193D01*
X1283934Y839506D01*
X1281247Y836233D01*
X1279250Y832497D01*
X1278021Y828445D01*
X1277606Y824230D01*
X1278021Y820015D01*
X1279250Y815963D01*
X1281247Y812227D01*
X1283934Y808954D01*
X1287207Y806267D01*
X1290943Y804270D01*
X1294995Y803041D01*
X1299210Y802626D01*
X1303425Y803041D01*
X1307478Y804270D01*
X1311212Y806267D01*
X1314486Y808954D01*
X1317173Y812227D01*
X1319169Y815963D01*
X1320399Y820015D01*
X1320814Y824230D01*
X1320399Y828445D01*
X1319755Y830566D01*
X1320607Y831699D01*
X1455921D01*
X1479370Y808250D01*
Y799450D01*
Y786750D01*
Y774050D01*
X1481519D01*
Y756700D01*
X1482000Y753045D01*
X1483411Y749640D01*
X1485655Y746715D01*
X1491135Y741235D01*
X1491987Y738428D01*
X1493537Y735527D01*
X1495624Y732984D01*
X1498167Y730897D01*
X1501068Y729346D01*
X1504216Y728392D01*
X1507490Y728069D01*
X1509794Y728296D01*
X1531469Y706621D01*
Y626879D01*
X1499812Y595222D01*
X1498167Y594343D01*
X1495624Y592256D01*
X1493537Y589713D01*
X1491987Y586812D01*
X1491032Y583664D01*
X1490709Y580390D01*
X1491032Y577116D01*
X1491987Y573968D01*
X1493537Y571067D01*
X1495624Y568524D01*
X1498167Y566437D01*
X1501068Y564887D01*
X1504216Y563932D01*
X1507490Y563609D01*
X1510764Y563932D01*
X1513912Y564887D01*
X1516813Y566437D01*
X1519356Y568524D01*
X1521443Y571067D01*
X1522993Y573968D01*
X1523948Y577116D01*
X1524200Y579670D01*
X1555575Y611045D01*
X1557819Y613970D01*
X1559230Y617375D01*
X1559711Y621030D01*
Y712470D01*
X1559230Y716125D01*
X1557819Y719530D01*
X1555575Y722455D01*
X1523195Y754835D01*
X1520271Y757079D01*
X1517530Y758214D01*
X1516813Y758803D01*
X1513912Y760353D01*
X1511105Y761205D01*
X1509761Y762549D01*
Y787400D01*
X1509370Y790368D01*
Y799450D01*
Y812150D01*
Y826150D01*
X1501410D01*
X1471755Y855805D01*
X1468830Y858049D01*
X1465425Y859460D01*
X1461770Y859941D01*
D02*
G37*
G36*
X1507490Y863231D02*
X1504216Y862908D01*
X1501068Y861953D01*
X1498167Y860403D01*
X1495624Y858316D01*
X1493537Y855773D01*
X1491987Y852872D01*
X1491032Y849724D01*
X1490709Y846450D01*
X1491032Y843176D01*
X1491987Y840028D01*
X1493537Y837127D01*
X1495624Y834584D01*
X1498167Y832497D01*
X1501068Y830947D01*
X1504216Y829992D01*
X1507490Y829669D01*
X1510764Y829992D01*
X1513912Y830947D01*
X1516813Y832497D01*
X1519356Y834584D01*
X1521443Y837127D01*
X1522993Y840028D01*
X1523948Y843176D01*
X1524271Y846450D01*
X1523948Y849724D01*
X1522993Y852872D01*
X1521443Y855773D01*
X1519356Y858316D01*
X1516813Y860403D01*
X1513912Y861953D01*
X1510764Y862908D01*
X1507490Y863231D01*
D02*
G37*
G36*
X1197610Y845834D02*
X1193395Y845419D01*
X1189342Y844190D01*
X1185608Y842193D01*
X1182334Y839506D01*
X1179647Y836233D01*
X1177651Y832497D01*
X1176421Y828445D01*
X1176006Y824230D01*
X1176421Y820015D01*
X1177651Y815963D01*
X1179647Y812227D01*
X1182334Y808954D01*
X1185608Y806267D01*
X1189342Y804270D01*
X1193395Y803041D01*
X1197610Y802626D01*
X1201825Y803041D01*
X1205878Y804270D01*
X1209613Y806267D01*
X1212886Y808954D01*
X1215573Y812227D01*
X1217570Y815963D01*
X1218799Y820015D01*
X1219214Y824230D01*
X1218799Y828445D01*
X1217570Y832497D01*
X1215573Y836233D01*
X1212886Y839506D01*
X1209613Y842193D01*
X1205878Y844190D01*
X1201825Y845419D01*
X1197610Y845834D01*
D02*
G37*
G36*
X1116330Y792759D02*
X1113628Y792404D01*
X1111110Y791361D01*
X1108948Y789702D01*
X1107289Y787540D01*
X1106246Y785022D01*
X1105891Y782320D01*
X1106246Y779618D01*
X1107289Y777100D01*
X1108948Y774938D01*
X1109667Y774387D01*
X1110218Y773668D01*
X1112380Y772009D01*
X1114898Y770966D01*
X1117600Y770611D01*
X1160780D01*
X1163482Y770966D01*
X1166000Y772009D01*
X1168162Y773668D01*
X1169821Y775830D01*
X1170864Y778348D01*
X1171219Y781050D01*
X1170864Y783752D01*
X1169821Y786270D01*
X1168162Y788432D01*
X1166000Y790091D01*
X1163482Y791134D01*
X1160780Y791489D01*
X1121239D01*
X1119032Y792404D01*
X1116330Y792759D01*
D02*
G37*
G36*
X1689090Y824740D02*
X1684539Y824381D01*
X1680101Y823316D01*
X1675883Y821569D01*
X1671991Y819184D01*
X1668520Y816219D01*
X1665556Y812748D01*
X1663171Y808856D01*
X1661424Y804639D01*
X1660358Y800201D01*
X1660000Y795650D01*
X1660358Y791099D01*
X1661424Y786661D01*
X1663171Y782443D01*
X1665556Y778551D01*
X1668520Y775080D01*
X1671991Y772116D01*
X1675883Y769731D01*
X1680101Y767984D01*
X1684539Y766918D01*
X1689090Y766560D01*
X1693640Y766918D01*
X1698079Y767984D01*
X1702296Y769731D01*
X1706188Y772116D01*
X1709659Y775080D01*
X1712624Y778551D01*
X1715009Y782443D01*
X1716756Y786661D01*
X1717821Y791099D01*
X1718179Y795650D01*
X1717821Y800201D01*
X1716756Y804639D01*
X1715009Y808856D01*
X1712624Y812748D01*
X1709659Y816219D01*
X1706188Y819184D01*
X1702296Y821569D01*
X1698079Y823316D01*
X1693640Y824381D01*
X1689090Y824740D01*
D02*
G37*
G36*
X1106170Y1065809D02*
X1103468Y1065454D01*
X1100950Y1064411D01*
X1098788Y1062752D01*
X1097129Y1060590D01*
X1096086Y1058072D01*
X1095731Y1055370D01*
X1096086Y1052668D01*
X1097129Y1050150D01*
X1098788Y1047988D01*
X1100950Y1046329D01*
X1103468Y1045286D01*
X1106170Y1044931D01*
X1108680Y1045261D01*
X1240497Y913444D01*
Y831850D01*
X1240906Y829794D01*
X1242070Y828051D01*
X1280170Y789950D01*
X1281914Y788786D01*
X1283970Y788377D01*
X1426870D01*
Y786302D01*
X1425424Y786014D01*
X1423681Y784849D01*
X1403360Y764529D01*
X1402196Y762786D01*
X1401787Y760730D01*
Y724410D01*
X1402196Y722354D01*
X1403360Y720611D01*
X1413210Y710761D01*
Y693860D01*
X1439210D01*
Y716860D01*
X1437454D01*
X1436748Y717916D01*
X1437056Y718658D01*
X1437411Y721360D01*
X1437056Y724062D01*
X1436748Y724804D01*
X1437454Y725860D01*
X1439210D01*
Y731987D01*
X1452370D01*
X1454426Y732396D01*
X1456169Y733560D01*
X1471920Y749311D01*
X1473084Y751054D01*
X1473493Y753110D01*
Y798830D01*
X1473084Y800886D01*
X1471920Y802629D01*
X1464299Y810249D01*
X1462556Y811414D01*
X1460500Y811823D01*
X1456870D01*
Y826150D01*
X1426870D01*
Y812150D01*
Y799123D01*
X1286196D01*
X1251243Y834076D01*
Y915670D01*
X1250834Y917726D01*
X1249669Y919470D01*
X1116279Y1052860D01*
X1116609Y1055370D01*
X1116254Y1058072D01*
X1115211Y1060590D01*
X1113552Y1062752D01*
X1111390Y1064411D01*
X1108872Y1065454D01*
X1106170Y1065809D01*
D02*
G37*
G36*
X1507490Y698771D02*
X1504216Y698448D01*
X1501068Y697493D01*
X1498167Y695943D01*
X1495624Y693856D01*
X1493537Y691313D01*
X1491987Y688412D01*
X1491032Y685264D01*
X1490709Y681990D01*
X1491032Y678716D01*
X1491987Y675568D01*
X1493537Y672667D01*
X1495624Y670124D01*
X1498167Y668037D01*
X1501068Y666487D01*
X1504216Y665532D01*
X1507490Y665209D01*
X1510764Y665532D01*
X1513912Y666487D01*
X1516813Y668037D01*
X1519356Y670124D01*
X1521443Y672667D01*
X1522993Y675568D01*
X1523948Y678716D01*
X1524271Y681990D01*
X1523948Y685264D01*
X1522993Y688412D01*
X1521443Y691313D01*
X1519356Y693856D01*
X1516813Y695943D01*
X1513912Y697493D01*
X1510764Y698448D01*
X1507490Y698771D01*
D02*
G37*
G36*
X1689090Y660280D02*
X1684539Y659921D01*
X1680101Y658856D01*
X1675883Y657109D01*
X1671991Y654724D01*
X1668520Y651759D01*
X1665556Y648288D01*
X1663171Y644396D01*
X1661424Y640179D01*
X1660358Y635741D01*
X1660000Y631190D01*
X1660358Y626639D01*
X1661424Y622201D01*
X1663171Y617984D01*
X1665556Y614091D01*
X1668520Y610620D01*
X1671991Y607656D01*
X1675883Y605271D01*
X1680101Y603524D01*
X1684539Y602458D01*
X1689090Y602100D01*
X1693640Y602458D01*
X1698079Y603524D01*
X1702296Y605271D01*
X1706188Y607656D01*
X1709659Y610620D01*
X1712624Y614091D01*
X1715009Y617984D01*
X1716756Y622201D01*
X1717821Y626639D01*
X1718179Y631190D01*
X1717821Y635741D01*
X1716756Y640179D01*
X1715009Y644396D01*
X1712624Y648288D01*
X1709659Y651759D01*
X1706188Y654724D01*
X1702296Y657109D01*
X1698079Y658856D01*
X1693640Y659921D01*
X1689090Y660280D01*
D02*
G37*
G36*
X1711960Y421654D02*
X1707745Y421239D01*
X1703692Y420009D01*
X1699957Y418013D01*
X1696684Y415326D01*
X1693997Y412052D01*
X1692000Y408317D01*
X1690771Y404265D01*
X1690356Y400050D01*
X1690771Y395835D01*
X1692000Y391782D01*
X1693997Y388047D01*
X1696684Y384774D01*
X1699957Y382087D01*
X1703692Y380090D01*
X1707745Y378861D01*
X1711960Y378446D01*
X1716175Y378861D01*
X1720228Y380090D01*
X1723963Y382087D01*
X1727236Y384774D01*
X1729923Y388047D01*
X1731920Y391782D01*
X1733149Y395835D01*
X1733564Y400050D01*
X1733149Y404265D01*
X1731920Y408317D01*
X1729923Y412052D01*
X1727236Y415326D01*
X1723963Y418013D01*
X1720228Y420009D01*
X1716175Y421239D01*
X1711960Y421654D01*
D02*
G37*
G36*
X1572260Y287299D02*
X1569558Y286944D01*
X1567040Y285901D01*
X1564878Y284242D01*
X1563219Y282080D01*
X1562176Y279562D01*
X1561821Y276860D01*
X1562176Y274158D01*
X1563219Y271640D01*
X1564878Y269478D01*
X1567040Y267819D01*
X1569558Y266776D01*
X1572260Y266421D01*
X1574962Y266776D01*
X1577480Y267819D01*
X1579642Y269478D01*
X1581183Y271487D01*
X1586859D01*
X1587010Y271290D01*
X1588641Y270038D01*
X1590541Y269251D01*
X1592580Y268983D01*
X1594619Y269251D01*
X1596519Y270038D01*
X1598150Y271290D01*
X1599402Y272921D01*
X1600189Y274821D01*
X1600457Y276860D01*
X1600189Y278899D01*
X1599402Y280799D01*
X1598150Y282430D01*
X1596519Y283682D01*
X1594619Y284469D01*
X1592580Y284737D01*
X1590541Y284469D01*
X1588641Y283682D01*
X1587010Y282430D01*
X1586859Y282233D01*
X1581183D01*
X1579642Y284242D01*
X1577480Y285901D01*
X1574962Y286944D01*
X1572260Y287299D01*
D02*
G37*
G36*
X1675130Y362244D02*
X1668792Y361829D01*
X1662563Y360589D01*
X1656549Y358548D01*
X1650853Y355739D01*
X1645572Y352210D01*
X1640797Y348023D01*
X1636610Y343248D01*
X1633081Y337967D01*
X1630272Y332271D01*
X1628230Y326257D01*
X1626991Y320028D01*
X1626576Y313690D01*
X1626991Y307352D01*
X1628230Y301123D01*
X1630272Y295109D01*
X1633081Y289413D01*
X1636610Y284132D01*
X1640797Y279357D01*
X1645572Y275170D01*
X1650853Y271641D01*
X1656549Y268832D01*
X1662563Y266791D01*
X1668792Y265551D01*
X1675130Y265136D01*
X1681468Y265551D01*
X1687697Y266791D01*
X1693711Y268832D01*
X1699407Y271641D01*
X1704688Y275170D01*
X1709463Y279357D01*
X1713650Y284132D01*
X1717179Y289413D01*
X1719988Y295109D01*
X1722030Y301123D01*
X1723269Y307352D01*
X1723684Y313690D01*
X1723269Y320028D01*
X1722030Y326257D01*
X1719988Y332271D01*
X1717179Y337967D01*
X1713650Y343248D01*
X1709463Y348023D01*
X1704688Y352210D01*
X1699407Y355739D01*
X1693711Y358548D01*
X1687697Y360589D01*
X1681468Y361829D01*
X1675130Y362244D01*
D02*
G37*
G36*
X411210Y1221909D02*
X408208Y1221514D01*
X405411Y1220355D01*
X403008Y1218512D01*
X401165Y1216110D01*
X400006Y1213312D01*
X399799Y1211736D01*
X305098Y1117036D01*
X304021Y1117755D01*
X304289Y1118400D01*
X304688Y1121433D01*
X304289Y1124467D01*
X303118Y1127293D01*
X301255Y1129721D01*
X298828Y1131583D01*
X296001Y1132754D01*
X292968Y1133154D01*
X289934Y1132754D01*
X287108Y1131583D01*
X284680Y1129721D01*
X282818Y1127293D01*
X281647Y1124467D01*
X281247Y1121433D01*
X281647Y1118400D01*
X282818Y1115573D01*
X284680Y1113146D01*
X287108Y1111283D01*
X289934Y1110113D01*
X292968Y1109713D01*
X296001Y1110113D01*
X298815Y1111278D01*
X298856Y1111261D01*
X299856Y1110471D01*
X299575Y1109792D01*
X299265Y1107442D01*
Y1097489D01*
X291198D01*
X287302Y1097106D01*
X283555Y1095969D01*
X280102Y1094124D01*
X277076Y1091640D01*
X274592Y1088614D01*
X272747Y1085161D01*
X271610Y1081414D01*
X271227Y1077518D01*
Y1045768D01*
X271610Y1041872D01*
X272747Y1038126D01*
X274592Y1034673D01*
X277076Y1031647D01*
X280102Y1029163D01*
X283555Y1027317D01*
X287302Y1026181D01*
X291198Y1025797D01*
X322948D01*
X326844Y1026181D01*
X330590Y1027317D01*
X334043Y1029163D01*
X337070Y1031647D01*
X339553Y1034673D01*
X341399Y1038126D01*
X342535Y1041872D01*
X342716Y1043712D01*
X370148D01*
X453239Y960621D01*
Y742950D01*
X453720Y739295D01*
X455131Y735890D01*
X457375Y732965D01*
X528495Y661845D01*
X531420Y659601D01*
X534825Y658190D01*
X538480Y657709D01*
X656590D01*
X659724Y658122D01*
X660877Y657506D01*
X663785Y656623D01*
X666810Y656325D01*
X669835Y656623D01*
X672743Y657506D01*
X675424Y658938D01*
X677773Y660867D01*
X679702Y663216D01*
X681134Y665897D01*
X682017Y668805D01*
X682315Y671830D01*
X682017Y674855D01*
X681134Y677763D01*
X679702Y680444D01*
X677773Y682793D01*
X675424Y684722D01*
X672743Y686154D01*
X669835Y687037D01*
X666810Y687335D01*
X663785Y687037D01*
X660877Y686154D01*
X659724Y685538D01*
X656590Y685951D01*
X595861D01*
X549322Y732490D01*
X549848Y733760D01*
X553280D01*
Y759760D01*
X530280D01*
Y733760D01*
X535224D01*
Y730760D01*
X535447Y729063D01*
X536102Y727482D01*
X537144Y726124D01*
X576144Y687124D01*
X575658Y685951D01*
X544329D01*
X497443Y732837D01*
X498316Y733760D01*
X499535Y733760D01*
X521280D01*
Y759760D01*
X516336D01*
Y1005586D01*
X516113Y1007283D01*
X515458Y1008864D01*
X514416Y1010222D01*
X424400Y1100238D01*
X426176Y1103136D01*
X428092Y1107762D01*
X429261Y1112631D01*
X429654Y1117623D01*
X429261Y1122615D01*
X428092Y1127485D01*
X426176Y1132111D01*
X423559Y1136380D01*
X420307Y1140188D01*
X416500Y1143440D01*
X412230Y1146057D01*
X407604Y1147973D01*
X402735Y1149142D01*
X397743Y1149535D01*
X392751Y1149142D01*
X387882Y1147973D01*
X383255Y1146057D01*
X378986Y1143440D01*
X375178Y1140188D01*
X371926Y1136380D01*
X369309Y1132111D01*
X367393Y1127485D01*
X366224Y1122615D01*
X365831Y1117623D01*
X366224Y1112631D01*
X367393Y1107762D01*
X369309Y1103136D01*
X371926Y1098866D01*
X375178Y1095059D01*
X378986Y1091806D01*
X383255Y1089190D01*
X387882Y1087274D01*
X392751Y1086105D01*
X397743Y1085712D01*
X402735Y1086105D01*
X407604Y1087274D01*
X412230Y1089190D01*
X415128Y1090966D01*
X503224Y1002870D01*
Y759760D01*
X498280D01*
Y735030D01*
X498280Y733796D01*
X497357Y732923D01*
X481481Y748799D01*
Y966470D01*
X481000Y970125D01*
X479589Y973530D01*
X477345Y976455D01*
X385982Y1067818D01*
X383057Y1070062D01*
X379651Y1071473D01*
X375997Y1071954D01*
X342919D01*
Y1077518D01*
X342535Y1081414D01*
X341399Y1085161D01*
X339553Y1088614D01*
X337070Y1091640D01*
X334043Y1094124D01*
X330590Y1095969D01*
X326844Y1097106D01*
X322948Y1097489D01*
X317420D01*
Y1103682D01*
X412636Y1198898D01*
X414212Y1199106D01*
X417010Y1200265D01*
X419412Y1202108D01*
X421255Y1204510D01*
X422414Y1207308D01*
X422809Y1210310D01*
X422414Y1213312D01*
X421255Y1216110D01*
X419412Y1218512D01*
X417010Y1220355D01*
X414212Y1221514D01*
X411210Y1221909D01*
D02*
G37*
G36*
X308843Y868854D02*
X305188Y868373D01*
X301782Y866962D01*
X298858Y864718D01*
X292275Y858136D01*
X290031Y855211D01*
X288620Y851805D01*
X288139Y848151D01*
Y720770D01*
X288620Y717115D01*
X290031Y713709D01*
X292275Y710785D01*
X305013Y698047D01*
X304265Y697038D01*
X299921Y698356D01*
X295402Y698801D01*
X290883Y698356D01*
X286539Y697038D01*
X282534Y694898D01*
X279024Y692018D01*
X276144Y688508D01*
X274004Y684503D01*
X272686Y680159D01*
X272241Y675640D01*
X272686Y671121D01*
X274004Y666777D01*
X276144Y662772D01*
X279024Y659262D01*
X282534Y656382D01*
X286539Y654241D01*
X290883Y652924D01*
X295402Y652478D01*
X299921Y652924D01*
X304265Y654241D01*
X308270Y656382D01*
X311780Y659262D01*
X314660Y662772D01*
X316800Y666777D01*
X318118Y671121D01*
X318563Y675640D01*
X318118Y680159D01*
X316800Y684503D01*
X317809Y685251D01*
X358405Y644655D01*
X361329Y642411D01*
X364735Y641000D01*
X368390Y640519D01*
X372045Y641000D01*
X375450Y642411D01*
X378375Y644655D01*
X380619Y647579D01*
X382030Y650985D01*
X382511Y654640D01*
X382030Y658295D01*
X380619Y661700D01*
X378375Y664625D01*
X366464Y676536D01*
X367007Y677684D01*
X368390Y677548D01*
X372115Y677915D01*
X375696Y679001D01*
X378997Y680765D01*
X381890Y683140D01*
X384264Y686033D01*
X386029Y689333D01*
X387115Y692915D01*
X387482Y696640D01*
X387115Y700364D01*
X386029Y703946D01*
X384264Y707247D01*
X381890Y710140D01*
X378997Y712514D01*
X375696Y714278D01*
X372115Y715365D01*
X368390Y715732D01*
X364665Y715365D01*
X361084Y714278D01*
X357783Y712514D01*
X354890Y710140D01*
X352516Y707247D01*
X350751Y703946D01*
X349665Y700364D01*
X349298Y696640D01*
X349434Y695256D01*
X348286Y694713D01*
X316381Y726619D01*
Y781383D01*
X317651Y782009D01*
X318857Y781083D01*
X321684Y779912D01*
X324718Y779513D01*
X327751Y779912D01*
X330578Y781083D01*
X333005Y782946D01*
X334868Y785373D01*
X336039Y788200D01*
X336438Y791233D01*
X336039Y794267D01*
X334868Y797094D01*
X333005Y799521D01*
X330578Y801383D01*
X327751Y802554D01*
X324718Y802954D01*
X321684Y802554D01*
X318857Y801383D01*
X317651Y800458D01*
X316381Y801084D01*
Y842302D01*
X318828Y844749D01*
X321072Y847673D01*
X322482Y851079D01*
X322963Y854733D01*
X322482Y858388D01*
X321072Y861794D01*
X318828Y864718D01*
X315903Y866962D01*
X312497Y868373D01*
X308843Y868854D01*
D02*
G37*
G36*
X397743Y826955D02*
X392751Y826562D01*
X387882Y825393D01*
X383255Y823477D01*
X378986Y820860D01*
X375178Y817608D01*
X371926Y813800D01*
X369309Y809531D01*
X367393Y804904D01*
X366224Y800035D01*
X365831Y795043D01*
X366224Y790051D01*
X367393Y785182D01*
X369309Y780556D01*
X371926Y776286D01*
X375178Y772479D01*
X378986Y769227D01*
X383255Y766610D01*
X387882Y764694D01*
X392751Y763525D01*
X397743Y763132D01*
X402735Y763525D01*
X407604Y764694D01*
X412230Y766610D01*
X416500Y769227D01*
X420307Y772479D01*
X423559Y776286D01*
X426176Y780556D01*
X428092Y785182D01*
X429261Y790051D01*
X429654Y795043D01*
X429261Y800035D01*
X428092Y804904D01*
X426176Y809531D01*
X423559Y813800D01*
X420307Y817608D01*
X416500Y820860D01*
X412230Y823477D01*
X407604Y825393D01*
X402735Y826562D01*
X397743Y826955D01*
D02*
G37*
G36*
X423390Y715732D02*
X419665Y715365D01*
X416084Y714278D01*
X412783Y712514D01*
X409890Y710140D01*
X407516Y707247D01*
X405751Y703946D01*
X404665Y700364D01*
X404298Y696640D01*
X404665Y692915D01*
X405751Y689333D01*
X407516Y686033D01*
X409890Y683140D01*
X412783Y680765D01*
X416084Y679001D01*
X419665Y677915D01*
X423390Y677548D01*
X427115Y677915D01*
X430696Y679001D01*
X433997Y680765D01*
X436134Y682519D01*
X449401D01*
X465610Y666310D01*
X465736Y665897D01*
X467168Y663216D01*
X469097Y660867D01*
X471446Y658938D01*
X474127Y657506D01*
X477035Y656623D01*
X480060Y656325D01*
X483085Y656623D01*
X485993Y657506D01*
X488674Y658938D01*
X491023Y660867D01*
X492952Y663216D01*
X494384Y665897D01*
X495267Y668805D01*
X495565Y671830D01*
X495267Y674855D01*
X494384Y677763D01*
X492952Y680444D01*
X491023Y682793D01*
X488674Y684722D01*
X485993Y686154D01*
X485580Y686280D01*
X465235Y706625D01*
X462311Y708869D01*
X458905Y710279D01*
X455250Y710760D01*
X436134D01*
X433997Y712514D01*
X430696Y714278D01*
X427115Y715365D01*
X423390Y715732D01*
D02*
G37*
G36*
Y673732D02*
X419665Y673365D01*
X416084Y672278D01*
X412783Y670514D01*
X409890Y668140D01*
X407516Y665247D01*
X405751Y661946D01*
X404665Y658364D01*
X404298Y654640D01*
X404665Y650915D01*
X405751Y647334D01*
X407516Y644033D01*
X409890Y641140D01*
X412783Y638765D01*
X416084Y637001D01*
X419665Y635915D01*
X423390Y635548D01*
X427115Y635915D01*
X430696Y637001D01*
X433997Y638765D01*
X436890Y641140D01*
X439264Y644033D01*
X441029Y647334D01*
X442115Y650915D01*
X442482Y654640D01*
X442115Y658364D01*
X441029Y661946D01*
X439264Y665247D01*
X436890Y668140D01*
X433997Y670514D01*
X430696Y672278D01*
X427115Y673365D01*
X423390Y673732D01*
D02*
G37*
G36*
X1234000Y663110D02*
X1140900D01*
Y576410D01*
X1234000D01*
Y663110D01*
D02*
G37*
%LPD*%
D10*
X986790Y703580D02*
X988060D01*
X1100118Y1126700D02*
X1105500D01*
X1097788Y1129030D02*
X1100118Y1126700D01*
X730200Y1177600D02*
X735300Y1172500D01*
X730200Y1177600D02*
Y1186500D01*
X1056640Y1111480D02*
Y1116480D01*
X980440Y1108980D02*
Y1113980D01*
Y973980D02*
Y978980D01*
X968740Y1108980D02*
X980440D01*
X966914Y978980D02*
X980440D01*
Y968980D02*
Y973980D01*
X966186Y968980D02*
X980440D01*
X1426972Y721360D02*
Y737360D01*
X930910Y1157986D02*
Y1183640D01*
X922020Y1172070D02*
Y1195070D01*
X930910Y1106170D02*
X940562Y1096518D01*
X941070Y787400D02*
Y874522D01*
X859280Y516130D02*
X870040D01*
X717500Y1186500D02*
Y1210000D01*
X966982Y1148980D02*
X980640D01*
X886714Y370586D02*
X913796D01*
X859790Y397510D02*
X886714Y370586D01*
X859790Y397510D02*
Y447040D01*
X855980Y350520D02*
X873760Y368300D01*
X855980Y335280D02*
Y350520D01*
X1572260Y276860D02*
X1592580D01*
X970330Y963980D02*
X980640D01*
X970170Y1118980D02*
X980640D01*
X1056640Y1096480D02*
X1071982D01*
X986790Y703580D02*
X991870Y708660D01*
X964690Y1093980D02*
X989824D01*
X1046870Y1101480D02*
X1056640D01*
X963188Y735858D02*
X977900D01*
X1047580Y1136480D02*
X1056640D01*
X1004570Y1227836D02*
X1009396Y1223010D01*
X999744Y1227836D02*
X1004570D01*
X796385Y1210310D02*
Y1219295D01*
X1038975Y1141480D02*
X1056640D01*
X1422400Y549094D02*
Y579120D01*
X1118870Y501650D02*
X1217930D01*
X1096010Y524510D02*
X1118870Y501650D01*
X1096010Y524510D02*
Y535940D01*
X1235710Y554990D02*
X1250950D01*
X1228090Y547370D02*
X1235710Y554990D01*
X1228090Y511810D02*
Y547370D01*
X1435100Y650240D02*
X1455420Y629920D01*
X1325880Y650240D02*
X1435100D01*
X1309370Y633730D02*
X1325880Y650240D01*
X1516380Y490220D02*
Y508000D01*
X1465580Y439420D02*
X1516380Y490220D01*
X1465580Y405130D02*
Y439420D01*
X1325880Y655320D02*
X1440180D01*
X1295400Y685800D02*
X1325880Y655320D01*
X1192530Y685800D02*
X1295400D01*
X1460500Y563880D02*
Y635000D01*
X1440180Y655320D02*
X1460500Y635000D01*
Y563880D02*
X1516380Y508000D01*
X1455420Y558800D02*
Y629920D01*
X1508760Y492760D02*
Y505460D01*
X1455420Y558800D02*
X1508760Y505460D01*
X1422400Y549094D02*
X1487624Y483870D01*
X1042670Y721360D02*
X1051560Y730250D01*
X1070415Y860820D02*
X1079500Y851734D01*
Y841250D02*
Y851734D01*
Y841250D02*
X1082040Y838710D01*
X698500Y601980D02*
Y693420D01*
X669290Y722630D02*
X698500Y693420D01*
X624080Y722630D02*
X669290D01*
X678890Y582370D02*
X698500Y601980D01*
X960120Y872490D02*
X994410Y906780D01*
X960120Y842681D02*
Y872490D01*
Y842681D02*
X971550Y831251D01*
X1069580Y860820D02*
X1070415D01*
X1064260Y866140D02*
X1069580Y860820D01*
X1064260Y866140D02*
Y888364D01*
X1089660Y792480D02*
Y838710D01*
X1064260Y767080D02*
X1089660Y792480D01*
X970280Y767080D02*
X1064260D01*
X1138810Y739520D02*
X1192530Y685800D01*
X1074420Y739520D02*
X1138810D01*
X1151890Y715010D02*
X1187450Y679450D01*
X901700Y456310D02*
Y459740D01*
X908304Y466344D01*
Y468376D01*
X1020420Y539140D02*
X1058520D01*
X1309370Y613410D02*
Y633730D01*
X1250950Y554990D02*
X1309370Y613410D01*
X1511300Y362840D02*
Y363220D01*
Y355600D02*
Y362840D01*
X1487170Y331470D02*
X1511300Y355600D01*
X1487170Y308610D02*
Y331470D01*
X1526920Y355980D02*
Y363220D01*
X1501140Y330200D02*
X1526920Y355980D01*
X1501140Y273050D02*
Y330200D01*
X1511300Y362840D02*
X1513650Y360490D01*
X1510920Y363220D02*
X1511300Y362840D01*
X1510920Y363220D02*
X1511300D01*
X1478280D02*
X1510920D01*
X1475740Y365760D02*
X1478280Y363220D01*
X1618704Y1025436D02*
Y1027976D01*
X1617980Y1028700D02*
X1618704Y1027976D01*
X1602540Y1008380D02*
X1618704Y992216D01*
X1555704D02*
X1571868Y1008380D01*
X1618704Y1225004D02*
Y1234216D01*
X1610360Y1216660D02*
X1618704Y1225004D01*
X1617980Y1198880D02*
X1618704Y1199604D01*
X1562100Y1216660D02*
Y1227820D01*
X1555704Y1234216D02*
X1562100Y1227820D01*
X1020294Y1165074D02*
X1030510Y1175290D01*
X1015754Y1173234D02*
X1027430Y1184910D01*
X1015754Y1126736D02*
Y1173234D01*
Y1126736D02*
X1018540Y1123950D01*
X1027430Y1184910D02*
X1176925D01*
X1020294Y1148866D02*
X1026160Y1143000D01*
X1020294Y1148866D02*
Y1165074D01*
X1026160Y1135085D02*
Y1143000D01*
X980640Y1008980D02*
X996280D01*
X980640Y1003980D02*
X1003980D01*
X980640Y1103980D02*
X992220D01*
X980640Y1123980D02*
X990570D01*
X1056640Y966480D02*
X1067816D01*
X980640Y1133980D02*
X996152D01*
X1056640Y1111480D02*
X1067538D01*
X1056640Y1126480D02*
X1070600D01*
X1137920Y1083310D02*
Y1141730D01*
X823950Y729260D02*
Y730250D01*
X955650Y522940D02*
Y523850D01*
X1036320Y513080D02*
X1046480Y523240D01*
X1036320Y502760D02*
Y513080D01*
X1063720Y1175290D02*
X1070340Y1168670D01*
X1030510Y1175290D02*
X1063720D01*
X1057910Y1160780D02*
X1060450Y1163320D01*
X1116330D01*
X1137920Y1141730D01*
X1056640Y1159510D02*
X1057910Y1160780D01*
X1045210Y786130D02*
X1047750Y783590D01*
X1056640D01*
X1195070Y521970D02*
X1202690D01*
X1132332D02*
X1138440D01*
X1260860D02*
Y522506D01*
X780740Y734060D02*
X781710Y733090D01*
X768350Y734060D02*
X780740D01*
X750570Y745870D02*
X756540Y751840D01*
X889000Y749300D02*
Y769780D01*
X869950Y730250D02*
X889000Y749300D01*
Y769780D02*
X890270Y771050D01*
X913130Y750570D02*
X918210D01*
X902970Y740410D02*
X913130Y750570D01*
X902970Y728980D02*
Y740410D01*
X882650Y708660D02*
X902970Y728980D01*
X847090Y722630D02*
X861060Y708660D01*
X882650D01*
X918210Y750570D02*
X947420Y779780D01*
X786440Y718820D02*
X800710Y733090D01*
X916940Y734060D02*
Y737870D01*
X850900Y668020D02*
X916940Y734060D01*
X850900Y574890D02*
Y668020D01*
X769620Y1112520D02*
X773430Y1116330D01*
X767080Y1036320D02*
X769620Y1038860D01*
X752600Y994920D02*
X881380D01*
X537210Y1210310D02*
X752600Y994920D01*
X844550Y1191260D02*
Y1214120D01*
X1030510Y1133015D02*
X1038975Y1141480D01*
X1030510Y1124795D02*
Y1133015D01*
X1040130Y1129030D02*
X1047580Y1136480D01*
X1070600Y1126480D02*
X1085850Y1141730D01*
X996152Y1133980D02*
X1011110Y1119022D01*
Y1040320D02*
Y1119022D01*
X990570Y1123980D02*
X996950Y1117600D01*
X1073182Y1072420D02*
X1084072Y1083310D01*
X1088390D01*
X1081786Y1061974D02*
X1096772Y1076960D01*
Y1096518D01*
X947420Y779780D02*
Y888278D01*
X1168200Y439420D02*
X1171530Y436090D01*
X1158240Y439420D02*
X1168200D01*
X1043560Y465710D02*
X1062990D01*
X1036320Y482760D02*
X1037370Y481710D01*
X1062990D01*
X967740Y402590D02*
Y403352D01*
Y394590D02*
Y402590D01*
Y391160D02*
Y394590D01*
Y402590D02*
X1007872Y442722D01*
X967740Y394590D02*
X977900Y384430D01*
X844970Y568960D02*
X850900Y574890D01*
X872236Y541020D02*
X875030Y543814D01*
Y552450D01*
X798910Y521890D02*
X853520D01*
X929640Y515620D02*
Y582930D01*
X916940Y595630D02*
X929640Y582930D01*
X916940Y595630D02*
Y723646D01*
X946150Y548940D02*
Y574040D01*
X923290Y596900D02*
X946150Y574040D01*
X923290Y596900D02*
Y720090D01*
X979170Y548640D02*
X991870D01*
X928370Y599440D02*
X979170Y548640D01*
X890270Y476250D02*
X929640Y515620D01*
X1002030Y674370D02*
X1007110Y669290D01*
X1283970Y793750D02*
X1441870D01*
X1245870Y831850D02*
X1283970Y793750D01*
X1245870Y831850D02*
Y915670D01*
X1427480Y781050D02*
X1441870D01*
X1407160Y760730D02*
X1427480Y781050D01*
X1426972Y737360D02*
X1452370D01*
X1426210D02*
X1426972D01*
X1452370D02*
X1468120Y753110D01*
Y798830D01*
X1460500Y806450D02*
X1468120Y798830D01*
X1441870Y806450D02*
X1460500D01*
X1441870D02*
Y819150D01*
X786900Y632460D02*
X820420Y665980D01*
X1049020Y715010D02*
X1151890D01*
X1042670Y721360D02*
X1049020Y715010D01*
X1068068Y723520D02*
X1074420D01*
X1065148Y726440D02*
X1068068Y723520D01*
X991870Y513080D02*
X1002030Y523240D01*
X981710Y501650D02*
Y523240D01*
X957502Y661045D02*
X957943Y664573D01*
X959485Y639445D02*
X962660Y636270D01*
X853520Y521890D02*
X859280Y516130D01*
X876300Y440310D02*
X890270Y454280D01*
Y476250D01*
X936650Y465860D02*
Y522940D01*
X927100Y456310D02*
X936650Y465860D01*
X934720Y600710D02*
X976630Y558800D01*
X980292Y736980D02*
X1041400D01*
X977900Y735330D02*
Y735858D01*
X867410Y781940D02*
X868680Y780670D01*
Y764540D02*
Y780670D01*
X919480Y402860D02*
X922020D01*
X816473Y513578D02*
X816473Y513578D01*
X969010Y775716D02*
X1021080D01*
X964184D02*
X969010D01*
X905510Y950722D02*
Y1063500D01*
Y1096010D01*
Y864435D02*
Y950722D01*
X980440Y1108980D02*
X980640D01*
X934720Y418846D02*
X970916D01*
X695598Y534270D02*
X696468Y533400D01*
X695598Y534270D02*
X708570D01*
X695598D02*
X695598D01*
X1067816Y966480D02*
Y1076960D01*
X1027176Y845058D02*
X1028700Y843534D01*
X1022350Y849884D02*
X1027176Y845058D01*
X708570Y572370D02*
X711200Y575000D01*
Y652400D01*
X750570Y729870D02*
X761620Y718820D01*
X786440D01*
X505460Y565350D02*
X512010D01*
X521590Y574930D01*
X549910D01*
X867410Y797940D02*
X883380D01*
X890270Y791050D01*
X816473Y513578D02*
X818300Y510540D01*
X796290D02*
X798830Y508000D01*
X708570Y546970D02*
X738270D01*
X981710Y855820D02*
X990942D01*
X995482Y851280D01*
X1007110D01*
X981710Y810260D02*
Y835820D01*
X1035050Y854550D02*
X1062260D01*
X1064260Y852550D01*
X1035050Y811530D02*
Y834550D01*
X895350Y839850D02*
X904620D01*
X921860Y857090D01*
X929640D01*
Y814070D02*
Y837090D01*
X1507490Y744850D02*
X1513210D01*
X927100Y456310D02*
X955040D01*
X956310Y455040D01*
X1082040Y838710D02*
X1089660D01*
X1073182Y897286D02*
Y1072420D01*
X961390Y1127760D02*
Y1140968D01*
Y1127760D02*
X970170Y1118980D01*
X1106170Y1055370D02*
X1245870Y915670D01*
X881380Y1076200D02*
X895350Y1090170D01*
Y1229360D01*
X1407160Y724410D02*
X1426210Y705360D01*
X1407160Y724410D02*
Y760730D01*
X869530Y528320D02*
X884430D01*
X904240Y548130D01*
Y533400D02*
Y548130D01*
X816843Y1057933D02*
X819910Y1061001D01*
X982980Y400430D02*
X1016000D01*
X1026160Y410590D01*
Y523240D01*
X876300Y456310D02*
Y487680D01*
X1051560Y730250D02*
Y751840D01*
X1042670Y721360D02*
Y723520D01*
X1073530Y548640D02*
X1076960Y545210D01*
X1036320Y548640D02*
X1073530D01*
X1076960Y545210D02*
X1086740D01*
X1096010Y535940D01*
X1475740Y365760D02*
Y430530D01*
X711200Y668400D02*
X749890Y707090D01*
X791210D01*
X965200Y958850D02*
X970330Y963980D01*
X1043940Y1098550D02*
X1046870Y1101480D01*
X999490Y1028700D02*
X1011110Y1040320D01*
X1082802Y878586D02*
X1098550Y862838D01*
X1065148Y726440D02*
Y754760D01*
X971550Y784860D02*
Y831251D01*
X1098550Y788162D02*
Y862838D01*
X1065148Y754760D02*
X1098550Y788162D01*
X936646Y895860D02*
X971557Y930770D01*
X1576340Y486410D02*
X1577610Y485140D01*
X301980Y378830D02*
X304280Y376530D01*
X919480Y402860D02*
Y406400D01*
X922020Y388620D02*
Y402860D01*
Y388620D02*
X922370Y388270D01*
Y348900D02*
Y388270D01*
Y348900D02*
X937260Y334010D01*
X1166450D01*
X1213530Y381090D01*
X876300Y405510D02*
Y440310D01*
Y405510D02*
X881380Y400430D01*
X876300Y440310D02*
X901700D01*
X881380Y400430D02*
X889890D01*
X909320Y381000D01*
X1021080Y775716D02*
X1024890Y779526D01*
X953770Y786130D02*
X964184Y775716D01*
X1024890Y779526D02*
Y786130D01*
X916940Y723646D02*
X969010Y775716D01*
X982980Y384430D02*
X988160Y379250D01*
X1064260D01*
X952500Y384430D02*
X961010D01*
X967740Y391160D01*
Y403352D02*
X974470Y410082D01*
X977900Y384430D02*
X982980D01*
X1007872Y442722D02*
Y504190D01*
X915670Y788670D02*
X919480D01*
X887190Y817150D02*
X915670Y788670D01*
X887190Y817150D02*
Y846115D01*
X905510Y864435D01*
X913270Y1218070D02*
X922020D01*
X905510Y1210310D02*
X913270Y1218070D01*
X905510Y1096010D02*
Y1210310D01*
Y1063500D02*
X930910Y1088900D01*
X656590Y671830D02*
X666810D01*
X941070Y431800D02*
X948310Y439040D01*
X956310D01*
X1454930Y497840D02*
X1456944D01*
X1537480Y435610D02*
X1541780D01*
X1085088Y1129030D02*
X1097788D01*
X1067538Y1111480D02*
X1085088Y1129030D01*
X980440Y968980D02*
X980640D01*
X980440Y973980D02*
X980640D01*
X980440Y978980D02*
X980640D01*
X940562Y1005332D02*
Y1096518D01*
X922020Y1166876D02*
Y1172070D01*
X930910Y1104900D02*
Y1106170D01*
Y1157986D01*
X922020Y1166876D02*
X930910Y1157986D01*
X920242Y1193292D02*
X922020Y1195070D01*
X881380Y1233678D02*
X894207Y1246505D01*
X945388D01*
X951992Y1150620D02*
Y1239901D01*
X951770Y1150398D02*
X951992Y1150620D01*
X881380Y1108200D02*
Y1193292D01*
X945388Y1246505D02*
X951992Y1239901D01*
X980440Y1113980D02*
X980640D01*
X922274Y925068D02*
X966186Y968980D01*
X922274Y893318D02*
Y925068D01*
Y893318D02*
X941070Y874522D01*
X1045210Y786130D02*
Y792480D01*
X1038860Y798830D02*
X1045210Y792480D01*
X998220Y798830D02*
X1038860D01*
X991870Y792480D02*
X998220Y798830D01*
X816843Y854733D02*
Y879581D01*
X814070Y876808D02*
X816843Y879581D01*
X991870Y784860D02*
Y792480D01*
X777240Y534160D02*
X786640D01*
X798910Y521890D01*
X869530Y515620D02*
X870040Y516130D01*
X867410Y502920D02*
X869530D01*
X601220Y745490D02*
X624080Y722630D01*
X562843Y783867D02*
Y795043D01*
X913796Y370586D02*
X916590Y373380D01*
X912114Y398018D02*
X916590Y393542D01*
X912114Y414020D02*
X916940Y418846D01*
X934720D01*
X912114Y398018D02*
Y414020D01*
X927100Y426466D02*
X934720Y418846D01*
X927100Y426466D02*
Y440310D01*
X952500Y400430D02*
X970916Y418846D01*
X562843Y795043D02*
X562864Y795065D01*
Y1117602D01*
X562843Y1117623D02*
X562864Y1117602D01*
X976630Y558800D02*
X1000760D01*
X1020420Y539140D01*
X576580Y317000D02*
X620530Y273050D01*
X1416540Y492460D02*
Y497840D01*
X1414000D02*
X1416540D01*
X972058Y848360D02*
X985902D01*
X998982Y835280D01*
X869530Y541020D02*
X872236D01*
X881380Y936752D02*
Y951990D01*
X895350Y823850D02*
X909192D01*
X916432Y816610D01*
X998982Y835280D02*
X1007110D01*
X969010Y864870D02*
X972058Y867918D01*
Y848360D02*
Y867918D01*
X1057276Y843534D02*
X1064260Y836550D01*
X1028700Y843534D02*
X1057276D01*
X1081786Y894080D02*
Y1061974D01*
X1091946Y1101344D02*
X1096772Y1096518D01*
X1007110Y835280D02*
X1017398D01*
X1027176Y845058D01*
X1067816Y1076960D02*
X1091946Y1101090D01*
Y1101344D01*
X881380Y1026920D02*
Y1055370D01*
X633220Y739650D02*
Y745490D01*
X727943Y1117623D02*
X746904D01*
X251460Y257810D02*
X1746250D01*
X248920D02*
X259080D01*
X1746250D02*
X1752600D01*
Y1267460D01*
Y257810D02*
Y1267460D01*
X248920Y257810D02*
X1752600D01*
X549910Y590930D02*
X555880D01*
X563880Y582930D01*
Y548640D02*
Y582930D01*
X548640Y533400D02*
X563880Y548640D01*
X271780Y479030D02*
Y480060D01*
Y479030D02*
X301980Y448830D01*
X366280D01*
X415290Y497840D01*
X738270Y546970D02*
X741210Y549910D01*
X751840D01*
X745110Y533400D02*
X745870Y534160D01*
X758190Y415290D02*
X782320D01*
X493830Y565350D02*
X505460D01*
X770380Y534160D02*
X777240D01*
X775210Y504190D02*
X777240Y502160D01*
X537210Y1210310D02*
X695960D01*
X768610Y1261110D02*
X1064260D01*
X1024890Y632460D02*
X1031343Y627594D01*
X958850Y669290D02*
X961390D01*
X962660D01*
X808990Y515620D02*
X816473Y513578D01*
X1096790Y589530D02*
X1097846Y590800D01*
X1122680Y708660D02*
X1129030Y702310D01*
X991870Y708660D02*
X1122680D01*
X1097846Y590800D02*
X1105608Y590151D01*
X1113025Y589530D01*
X1296670Y628650D02*
Y659130D01*
X1187450Y679450D02*
X1276350D01*
X1296670Y659130D01*
X680736Y549132D02*
X695598Y534270D01*
X680736Y549132D02*
X695598Y534270D01*
X916590Y373380D02*
Y393542D01*
X970916Y418846D02*
X991870Y439800D01*
Y513080D01*
X955650Y523850D02*
X965200Y533400D01*
X1002030Y523240D02*
Y532930D01*
X1036320Y533400D02*
X1046480Y523240D01*
X1485900Y405130D02*
X1493520Y397510D01*
X1503680D01*
X1487624Y483870D02*
X1499870D01*
X1508760Y492760D01*
X1064260Y1261110D02*
X1130300Y1195070D01*
X992220Y1103980D02*
X995110Y1101090D01*
X999490D01*
X951770Y1125950D02*
Y1150398D01*
Y1125950D02*
X968740Y1108980D01*
X966470Y1172972D02*
X971550Y1178052D01*
X966470Y1149493D02*
X966982Y1148980D01*
X966470Y1149493D02*
Y1172972D01*
X1217930Y501650D02*
X1228090Y511810D01*
X1316900Y434820D02*
X1320010D01*
X693820Y559670D02*
X708570D01*
X678890Y550979D02*
X680736Y549132D01*
X678890Y550979D02*
Y582370D01*
X756540Y751840D02*
X830580D01*
X847090Y735330D01*
Y722630D02*
Y735330D01*
X934720Y600710D02*
Y707390D01*
X963188Y735858D01*
X1045210Y758190D02*
X1051560Y751840D01*
X923290Y720090D02*
X970280Y767080D01*
X928370Y599440D02*
Y712470D01*
X974090Y758190D01*
X1045210D01*
X954041Y633354D02*
X960970Y634220D01*
X978970Y636470D01*
X1022350Y849884D02*
Y864870D01*
X1067816Y910336D01*
Y966480D01*
X994410Y906780D02*
X1028700D01*
X953770Y786130D02*
Y873760D01*
X971557Y930770D02*
X995540D01*
X1009650Y944880D01*
Y979170D01*
X1089660Y854710D02*
Y857504D01*
X1064260Y888364D02*
X1073182Y897286D01*
X1070610Y876554D02*
X1089660Y857504D01*
X1070610Y876554D02*
Y882904D01*
X1081786Y894080D01*
X1071880Y1096378D02*
X1071982Y1096480D01*
X1071880Y1096010D02*
Y1096378D01*
X1116330Y782320D02*
X1117600Y781050D01*
X1668760Y400050D02*
X1741170Y472460D01*
X1638760Y400050D02*
X1676400Y437690D01*
Y506730D01*
X1731010Y561340D01*
Y960121D01*
X1544320Y1146810D02*
X1731010Y960121D01*
X1741170Y472460D02*
Y1013460D01*
X1185815Y1193800D02*
X1560830D01*
X1741170Y1013460D01*
X1070340Y1168670D02*
X1168130D01*
X1189990Y1146810D01*
X1544320D01*
X1176925Y1184910D02*
X1185815Y1193800D01*
X996280Y1008980D02*
X1018540Y1031240D01*
X1003980Y1003980D02*
X1028700Y1028700D01*
Y1120185D01*
X1025970Y1122915D02*
X1028700Y1120185D01*
X1025970Y1122915D02*
Y1134895D01*
X1026160Y1135085D01*
X1018540Y1031240D02*
Y1123950D01*
X1009650Y979170D02*
X1036320Y1005840D01*
Y1118985D01*
X1030510Y1124795D02*
X1036320Y1118985D01*
X1043940Y993140D02*
Y1098550D01*
X1018540Y967740D02*
X1043940Y993140D01*
X953770Y873760D02*
X995680Y915670D01*
X1013460D01*
X1019810Y922020D01*
X1001703Y924233D02*
X1018540Y941070D01*
Y967740D01*
X947420Y888278D02*
X983376Y924233D01*
X1001703D01*
X934720Y895860D02*
X936646D01*
X934720Y911860D02*
Y914400D01*
X965200Y944880D01*
Y958850D01*
X940562Y1005332D02*
X966914Y978980D01*
X941070Y1117600D02*
X964690Y1093980D01*
X999224Y1084580D02*
X1000760D01*
X989824Y1093980D02*
X999224Y1084580D01*
X1004570Y1224280D02*
Y1227836D01*
X1049020Y1223010D02*
X1076960Y1195070D01*
X1009396Y1223010D02*
X1049020D01*
X881380Y1193292D02*
Y1233678D01*
X796385Y1219295D02*
X830580Y1253490D01*
X974090D01*
X999744Y1227836D01*
X895350Y1229360D02*
X902970Y1236980D01*
X934720D01*
X941070Y1230630D01*
Y1117600D02*
Y1230630D01*
X859790Y495300D02*
X867410Y502920D01*
X859790Y447040D02*
Y495300D01*
X1536700Y436390D02*
X1537480Y435610D01*
X415290Y497840D02*
X447840D01*
X483400Y533400D01*
X548640D01*
X1002030Y532930D02*
X1002500Y533400D01*
X965200D02*
X1002500D01*
X1036320D01*
X717500Y1210000D02*
X768610Y1261110D01*
X730200Y1244550D02*
Y1250000D01*
X695960Y1210310D02*
X730200Y1244550D01*
X735300Y1172500D02*
X747500D01*
X766260Y1191260D01*
X844550D01*
X286917Y988083D02*
X308843D01*
X295000Y1162500D02*
X315000D01*
X402500Y1250000D01*
X717500D01*
X260000Y1015000D02*
X286917Y988083D01*
X260000Y1015000D02*
Y1127500D01*
X295000Y1162500D01*
X1737360Y1302420D02*
X1752600Y1307500D01*
X1737360Y1312580D02*
X1752600Y1307500D01*
X248920D02*
X264160Y1312580D01*
X248920Y1307500D02*
X264160Y1302420D01*
X1041387Y1307500D02*
X1752600D01*
X248920D02*
X952005D01*
X1752600Y1271270D02*
Y1310040D01*
X248920Y1276350D02*
Y1310040D01*
D14*
X956069Y1298358D02*
X961148D01*
X958608D01*
Y1313593D01*
X956069Y1311054D01*
X978922Y1313593D02*
X968765D01*
Y1305976D01*
X973843Y1308515D01*
X976383D01*
X978922Y1305976D01*
Y1300898D01*
X976383Y1298358D01*
X971304D01*
X968765Y1300898D01*
X984000Y1311054D02*
X986539Y1313593D01*
X991618D01*
X994157Y1311054D01*
Y1300898D01*
X991618Y1298358D01*
X986539D01*
X984000Y1300898D01*
Y1311054D01*
X999235Y1298358D02*
Y1300898D01*
X1001774D01*
Y1298358D01*
X999235D01*
X1011931Y1311054D02*
X1014470Y1313593D01*
X1019549D01*
X1022088Y1311054D01*
Y1308515D01*
X1019549Y1305976D01*
X1017009D01*
X1019549D01*
X1022088Y1303437D01*
Y1300898D01*
X1019549Y1298358D01*
X1014470D01*
X1011931Y1300898D01*
X1027166Y1313593D02*
X1037323D01*
Y1311054D01*
X1027166Y1300898D01*
Y1298358D01*
D27*
X1592580Y276860D02*
D03*
X873760Y368300D02*
D03*
X1590040Y325120D02*
D03*
D28*
X1618704Y1234216D02*
D03*
X1555704D02*
D03*
Y992216D02*
D03*
X1618704D02*
D03*
D29*
X980314Y1033796D02*
D03*
Y1038796D02*
D03*
Y1028796D02*
D03*
Y1023796D02*
D03*
Y1053796D02*
D03*
Y1058796D02*
D03*
Y1048796D02*
D03*
Y1043796D02*
D03*
Y1003796D02*
D03*
Y1008796D02*
D03*
Y1018796D02*
D03*
Y1013796D02*
D03*
Y973796D02*
D03*
Y978796D02*
D03*
Y968796D02*
D03*
Y963796D02*
D03*
X980314Y1068796D02*
D03*
Y1073796D02*
D03*
Y1083796D02*
D03*
Y1078796D02*
D03*
Y1063796D02*
D03*
Y1128796D02*
D03*
Y1143796D02*
D03*
Y1148796D02*
D03*
Y1138796D02*
D03*
Y1133796D02*
D03*
X980314Y1108796D02*
D03*
Y1113796D02*
D03*
Y1123796D02*
D03*
Y1118796D02*
D03*
Y1088796D02*
D03*
Y1093796D02*
D03*
Y1103796D02*
D03*
Y1098796D02*
D03*
X1056314Y1096296D02*
D03*
Y1101296D02*
D03*
Y1091296D02*
D03*
Y1086296D02*
D03*
Y1116296D02*
D03*
Y1121296D02*
D03*
Y1111296D02*
D03*
Y1106296D02*
D03*
Y1131296D02*
D03*
Y1136296D02*
D03*
Y1146296D02*
D03*
Y1141296D02*
D03*
Y1126296D02*
D03*
Y1061296D02*
D03*
Y1076296D02*
D03*
Y1081296D02*
D03*
Y1071296D02*
D03*
Y1066296D02*
D03*
Y966296D02*
D03*
Y976296D02*
D03*
Y971296D02*
D03*
Y1011296D02*
D03*
Y1016296D02*
D03*
Y1006296D02*
D03*
Y1001296D02*
D03*
Y1041296D02*
D03*
Y1046296D02*
D03*
Y1056296D02*
D03*
Y1051296D02*
D03*
Y1021296D02*
D03*
Y1026296D02*
D03*
Y1036296D02*
D03*
Y1031296D02*
D03*
D30*
X988314Y950796D02*
D03*
Y1161796D02*
D03*
D31*
X301980Y448830D02*
D03*
Y378830D02*
D03*
D32*
X730200Y1250000D02*
D03*
X717500D02*
D03*
X730200Y1186500D02*
D03*
D33*
X717500D02*
D03*
D34*
X961190Y632460D02*
D03*
X1024890D02*
D03*
D35*
X1036320Y502760D02*
D03*
Y482760D02*
D03*
X890270Y771050D02*
D03*
Y791050D02*
D03*
X1035050Y854550D02*
D03*
Y834550D02*
D03*
X981710Y855820D02*
D03*
Y835820D02*
D03*
X929640Y857090D02*
D03*
Y837090D02*
D03*
D36*
X549910Y590930D02*
D03*
Y574930D02*
D03*
X711200Y652400D02*
D03*
Y668400D02*
D03*
X930910Y1104900D02*
D03*
Y1088900D02*
D03*
X952500Y400430D02*
D03*
Y384430D02*
D03*
X1007110Y835280D02*
D03*
Y851280D02*
D03*
X1064260Y836550D02*
D03*
Y852550D02*
D03*
X895350Y823850D02*
D03*
Y839850D02*
D03*
X934720Y895860D02*
D03*
Y911860D02*
D03*
X956310Y439040D02*
D03*
Y455040D02*
D03*
X901700Y440310D02*
D03*
Y456310D02*
D03*
X982980Y384430D02*
D03*
Y400430D02*
D03*
X1076960Y545210D02*
D03*
Y529210D02*
D03*
X1042670Y723520D02*
D03*
Y739520D02*
D03*
X1074420Y723520D02*
D03*
Y739520D02*
D03*
X1062990Y465710D02*
D03*
Y481710D02*
D03*
X754380Y550290D02*
D03*
Y534290D02*
D03*
X750570Y745870D02*
D03*
Y729870D02*
D03*
X927100Y456310D02*
D03*
Y440310D02*
D03*
X1089660Y854710D02*
D03*
Y838710D02*
D03*
X876300Y456310D02*
D03*
Y440310D02*
D03*
X867410Y781940D02*
D03*
Y797940D02*
D03*
D37*
X633220Y745490D02*
D03*
X601220D02*
D03*
X541780Y746760D02*
D03*
X509780D02*
D03*
X787910Y1158630D02*
D03*
X819910D02*
D03*
D38*
X922020Y1218070D02*
D03*
Y1172070D02*
D03*
D39*
X1035050Y811530D02*
D03*
X1045210Y786130D02*
D03*
X1024890D02*
D03*
X981710Y810260D02*
D03*
X991870Y784860D02*
D03*
X971550D02*
D03*
X929640Y814070D02*
D03*
X939800Y788670D02*
D03*
X919480D02*
D03*
Y406400D02*
D03*
X929640Y381000D02*
D03*
X909320D02*
D03*
X1036320Y548640D02*
D03*
X1046480Y523240D02*
D03*
X1026160D02*
D03*
X991870Y548640D02*
D03*
X1002030Y523240D02*
D03*
X981710D02*
D03*
X1475740Y430530D02*
D03*
X1485900Y405130D02*
D03*
X1465580D02*
D03*
D40*
X1454930Y497840D02*
D03*
X1494010D02*
D03*
X1377460D02*
D03*
X1416540D02*
D03*
X1537480Y435610D02*
D03*
X1576560D02*
D03*
D41*
X1510920Y363220D02*
D03*
X1526920D02*
D03*
D42*
X881380Y994920D02*
D03*
Y1026920D02*
D03*
X777240Y502160D02*
D03*
Y534160D02*
D03*
X881380Y1108200D02*
D03*
Y1076200D02*
D03*
X1426210Y705360D02*
D03*
Y737360D02*
D03*
X904240Y516130D02*
D03*
Y548130D02*
D03*
X881380Y951990D02*
D03*
Y919990D02*
D03*
D43*
X823950Y730250D02*
D03*
X869950D02*
D03*
X798550Y1214120D02*
D03*
X844550D02*
D03*
D44*
X505460Y501650D02*
D03*
Y565350D02*
D03*
D45*
X676320Y389790D02*
D03*
Y441790D02*
D03*
X892900Y657960D02*
D03*
Y605960D02*
D03*
D46*
X782320Y415290D02*
D03*
X786900Y632460D02*
D03*
D47*
X551080Y423000D02*
D03*
X603080D02*
D03*
D48*
X576580Y317000D02*
D03*
D49*
X328930Y543560D02*
D03*
X439930D02*
D03*
D50*
X791210Y707090D02*
D03*
X800710Y733090D02*
D03*
X781710D02*
D03*
X946150Y548940D02*
D03*
X936650Y522940D02*
D03*
X955650D02*
D03*
D51*
X1441870Y819150D02*
D03*
Y806450D02*
D03*
Y793750D02*
D03*
Y781050D02*
D03*
X1494370Y819150D02*
D03*
Y806450D02*
D03*
Y793750D02*
D03*
Y781050D02*
D03*
X869530Y502920D02*
D03*
Y515620D02*
D03*
Y528320D02*
D03*
Y541020D02*
D03*
X817030Y502920D02*
D03*
Y515620D02*
D03*
Y528320D02*
D03*
Y541020D02*
D03*
D52*
X1325110Y521970D02*
D03*
X1260860D02*
D03*
X1202690D02*
D03*
X1138440D02*
D03*
D53*
X623570Y534670D02*
D03*
D54*
X708570Y496170D02*
D03*
Y508870D02*
D03*
Y521570D02*
D03*
Y534270D02*
D03*
Y546970D02*
D03*
Y559670D02*
D03*
Y572370D02*
D03*
D55*
X1105450Y588260D02*
D03*
X1105950Y650760D02*
D03*
D56*
X1187450Y619760D02*
D03*
D114*
X1400900Y441796D02*
X1456944Y497840D01*
X420120Y540000D02*
X440000D01*
X1410970Y631190D02*
X1419860D01*
X1628140Y464820D02*
Y500380D01*
X1597660Y530860D02*
X1628140Y500380D01*
X1513840Y530860D02*
X1597660D01*
X1475740Y568960D02*
X1513840Y530860D01*
X1442720Y678180D02*
X1475740Y645160D01*
Y568960D02*
Y645160D01*
X1419860Y605790D02*
X1433830D01*
X1440180Y599440D01*
Y551670D02*
Y599440D01*
Y551670D02*
X1494010Y497840D01*
X1394460Y614680D02*
X1410970Y631190D01*
X1394460Y519920D02*
Y614680D01*
Y519920D02*
X1416540Y497840D01*
X1598930Y435610D02*
X1628140Y464820D01*
X1576560Y435610D02*
X1598930D01*
X1554480Y350520D02*
Y377190D01*
X1512570Y308610D02*
X1554480Y350520D01*
X899160Y568960D02*
X915670Y572770D01*
X844970Y568960D02*
X899160D01*
X818300Y544830D02*
X839680Y563670D01*
X1501140Y273050D02*
X1518920D01*
X1465326D02*
X1501140D01*
X1507490Y580390D02*
Y582930D01*
X1322070Y576580D02*
Y628650D01*
X1375410Y697230D02*
X1394460Y678180D01*
X1442720D01*
X1537970Y292100D02*
Y308610D01*
X1518920Y273050D02*
X1537970Y292100D01*
X1358900Y434820D02*
X1386050Y407670D01*
X1437386Y300990D02*
X1465326Y273050D01*
X1437386Y300990D02*
Y398780D01*
X1428496Y407670D02*
X1437386Y398780D01*
X620530Y273050D02*
X1465326D01*
X1386050Y407670D02*
X1428496D01*
X1358900Y434820D02*
X1416540Y492460D01*
X1024604Y617082D02*
X1027208Y579754D01*
X1024604Y617082D02*
X1031522Y625037D01*
X1031343Y627594D02*
X1031522Y625037D01*
X1118558Y628870D02*
Y638152D01*
X1105950Y650760D02*
X1118558Y638152D01*
X796290Y510540D02*
X818300D01*
Y502920D02*
Y510540D01*
X892810Y633730D02*
Y659130D01*
X1097846Y590800D02*
X1099137Y587045D01*
X1074720Y635300D02*
X1097846Y590800D01*
X818300Y533400D02*
Y544830D01*
X1027208Y579754D02*
X1028700Y572770D01*
X1389870Y521970D02*
X1414000Y497840D01*
X1320800Y521970D02*
X1325110D01*
X1389870D01*
X1292860Y458860D02*
X1316900Y434820D01*
X1292860Y458860D02*
Y547370D01*
X1322070Y576580D01*
X701040Y472440D02*
X758190Y415290D01*
X693420Y472440D02*
X701040D01*
X693420D02*
X708570Y487590D01*
Y493630D01*
X549910Y471170D02*
X553720Y467360D01*
X688340D01*
X693420Y472440D01*
X1243616Y539750D02*
X1260860Y522506D01*
X1239520Y539750D02*
X1243616D01*
X1320010Y434820D02*
X1377460Y492270D01*
Y497840D01*
X1511300Y420370D02*
X1554480Y377190D01*
X1511300Y420370D02*
Y458470D01*
X1539240Y486410D01*
X1576340D01*
X420120Y540000D02*
X420370Y539750D01*
X412500Y540000D02*
X420120D01*
X325000Y542290D02*
X325210Y542500D01*
X352500D01*
D115*
X816843Y879581D02*
X826241D01*
X745870Y534160D02*
X770380D01*
X696468Y533400D02*
X745110D01*
X1006602Y1201166D02*
X1008380Y1199388D01*
X975360Y1141730D02*
X999490D01*
X1058520Y539140D02*
X1076960Y520700D01*
X866650Y919990D02*
X881380D01*
X826241Y879581D02*
X866650Y919990D01*
X1076960Y520700D02*
Y529210D01*
X1571868Y1008380D02*
X1602540D01*
X1618704Y992216D02*
Y1025436D01*
Y1199604D02*
Y1225004D01*
X1562100Y1216660D02*
X1610360D01*
X1008380Y1150620D02*
Y1199388D01*
X999490Y1141730D02*
X1008380Y1150620D01*
X1056640Y1148080D02*
Y1159510D01*
X764540Y481330D02*
X834390D01*
X737000Y508870D02*
X764540Y481330D01*
X1076960Y520700D02*
X1158240Y439420D01*
X633220Y739650D02*
X636520Y742950D01*
X819910Y1061001D02*
Y1158630D01*
X541780Y730760D02*
Y746760D01*
Y730760D02*
X600710Y671830D01*
X758190Y313290D02*
X806050D01*
X839470Y346710D01*
Y476250D01*
X834390Y481330D02*
X839470Y476250D01*
X662940Y306070D02*
X680720Y288290D01*
X662940Y306070D02*
Y334010D01*
X676320Y347390D01*
Y389790D01*
X870040Y516130D02*
X904240D01*
X869530Y502920D02*
Y515620D01*
X562843Y783867D02*
X601220Y745490D01*
X1171530Y436090D02*
X1194870Y412750D01*
X1236980D01*
X1259078Y434848D01*
X1091946Y1101344D02*
Y1112012D01*
X636520Y742950D02*
X716280D01*
X727943Y754613D01*
Y795043D01*
X397743Y1117623D02*
X509780Y1005586D01*
Y746760D02*
Y1005586D01*
X746904Y1117623D02*
X787910Y1158630D01*
X757830Y521570D02*
X775210Y504190D01*
X708570Y521570D02*
X757830D01*
X1259078Y434848D02*
X1290320D01*
X1331206Y473702D02*
Y476004D01*
X1332230Y474980D01*
X304280Y376530D02*
X393501D01*
D116*
X1495640Y756700D02*
Y787400D01*
Y756700D02*
X1507490Y744850D01*
Y582930D02*
X1545590Y621030D01*
X769620Y1038860D02*
Y1112520D01*
X1308100Y977900D02*
X1366520D01*
X961390Y643890D02*
X962660Y642620D01*
X961390Y669290D02*
Y671830D01*
Y643890D02*
Y669290D01*
X962660Y636270D02*
Y642620D01*
X959485Y639445D02*
X962660Y642620D01*
X600710Y671830D02*
X656590D01*
X538480D02*
X600710D01*
X423390Y696640D02*
X455250D01*
X480060Y671830D01*
X1513210Y744850D02*
X1545590Y712470D01*
Y621030D02*
Y712470D01*
X302260Y720770D02*
X368390Y654640D01*
X302260Y720770D02*
Y848151D01*
X308843Y854733D01*
X308343Y1057833D02*
X375997D01*
X467360Y966470D01*
Y742950D02*
Y966470D01*
Y742950D02*
X538480Y671830D01*
X813098Y875836D02*
X814070Y876808D01*
X1314450Y845820D02*
X1461770D01*
X1313043Y845644D02*
X1314450Y845820D01*
X1292995Y822742D02*
X1295400Y822960D01*
X963930Y674370D02*
X1002030D01*
X961390Y671830D02*
X963930Y674370D01*
X532130Y423000D02*
X551080D01*
X961390Y671830D02*
Y683260D01*
X1461770Y845820D02*
X1494155Y813435D01*
X1297451Y825598D02*
X1313043Y845644D01*
X1295400Y822960D02*
X1297451Y825598D01*
D117*
X823950Y729260D02*
X850900Y702310D01*
X1041400Y669290D02*
X1057070Y653620D01*
X1007110Y669290D02*
X1041400D01*
X1078230Y565150D02*
X1151890D01*
X1195070Y521970D01*
X1111250Y543052D02*
X1132332Y521970D01*
X811530Y849421D02*
X816843Y854733D01*
X811530Y786130D02*
Y849421D01*
Y786130D02*
X867410Y730250D01*
X869950D01*
X1400900Y434820D02*
Y441796D01*
X1057070Y586310D02*
X1078230Y565150D01*
X1057070Y586310D02*
Y653620D01*
X308343Y1057833D02*
Y1107442D01*
X411210Y1210310D01*
X1340350Y483100D02*
Y520609D01*
X1332230Y474980D02*
X1340350Y483100D01*
X1536700Y436390D02*
Y453390D01*
X708570Y508870D02*
X737000D01*
D118*
X820420Y665980D02*
Y704740D01*
D119*
X463550Y595630D02*
X493830Y565350D01*
X396240Y595630D02*
X463550D01*
X377190Y576580D02*
X396240Y595630D01*
X377190Y504190D02*
Y576580D01*
X365760Y492760D02*
X377190Y504190D01*
X504190Y500380D02*
X505460Y501650D01*
X473710Y376710D02*
X504190Y407190D01*
Y500380D01*
D120*
X691388Y562102D02*
X693820Y559670D01*
D121*
X1117600Y781050D02*
X1160780D01*
D122*
X1587204Y992216D02*
D03*
D123*
Y1234216D02*
D03*
X1033564Y1156296D02*
D03*
X773430Y1116330D02*
D03*
X767080Y1036320D02*
D03*
X1308100Y977900D02*
D03*
X1366520D02*
D03*
X1002030Y674370D02*
D03*
X734060Y506730D02*
D03*
X365760Y492760D02*
D03*
D124*
X1033564Y956296D02*
D03*
X537210Y1210310D02*
D03*
X411210D02*
D03*
X529590Y423000D02*
D03*
D125*
X1057910Y1160780D02*
D03*
X1638760Y400050D02*
D03*
X1668760D02*
D03*
X324718Y791233D02*
D03*
X832718D02*
D03*
X800968Y1121433D02*
D03*
X292968D02*
D03*
D126*
X1299210Y824230D02*
D03*
X1197610D02*
D03*
X1711960Y400050D02*
D03*
D127*
X1197610Y697230D02*
D03*
X1375410D02*
D03*
D128*
X1316900Y379820D02*
D03*
Y434820D02*
D03*
X1358900D02*
D03*
Y379820D02*
D03*
X1400900Y434820D02*
D03*
X1171530Y436090D02*
D03*
Y381090D02*
D03*
X1213530Y436090D02*
D03*
X423390Y696640D02*
D03*
X368390D02*
D03*
X423390Y654640D02*
D03*
D129*
X1400900Y379820D02*
D03*
X1213530Y381090D02*
D03*
D130*
X1400900Y303530D02*
D03*
X1316900D02*
D03*
D131*
X473710Y431710D02*
D03*
X1577610Y485140D02*
D03*
X1064260Y434250D02*
D03*
X393501Y431530D02*
D03*
D132*
X473710Y376710D02*
D03*
X1064260Y379250D02*
D03*
X393501Y376530D02*
D03*
D133*
X473710Y303710D02*
D03*
X1705610Y485140D02*
D03*
X1064260Y306250D02*
D03*
X393501Y303530D02*
D03*
D134*
X1632610Y485140D02*
D03*
D135*
X1192530Y308102D02*
D03*
X295402Y675640D02*
D03*
D136*
X1419860Y629920D02*
D03*
Y604520D02*
D03*
X1347470Y628650D02*
D03*
X1322070D02*
D03*
X1537970Y308610D02*
D03*
X1512570D02*
D03*
D137*
X1419860Y579120D02*
D03*
D138*
X1296670Y628650D02*
D03*
X1487170Y308610D02*
D03*
D139*
X1507490Y580390D02*
D03*
Y681990D02*
D03*
Y846450D02*
D03*
Y744850D02*
D03*
D140*
X1689090Y631190D02*
D03*
Y795650D02*
D03*
D141*
X397743Y1117623D02*
D03*
X562843D02*
D03*
X727943D02*
D03*
X397743Y795043D02*
D03*
X562843D02*
D03*
X727943D02*
D03*
D142*
X307573Y986813D02*
D03*
Y923313D02*
D03*
D143*
Y850923D02*
D03*
X818113Y854733D02*
D03*
Y956333D02*
D03*
Y1057933D02*
D03*
X307073Y1061643D02*
D03*
D144*
X680720Y288290D02*
D03*
Y313290D02*
D03*
X758190Y288290D02*
D03*
Y313290D02*
D03*
X981710Y288690D02*
D03*
Y313690D02*
D03*
X834390Y313290D02*
D03*
Y288290D02*
D03*
X906780Y313290D02*
D03*
Y288290D02*
D03*
X996950Y1117600D02*
D03*
X1088390Y1083310D02*
D03*
X999490Y1101090D02*
D03*
X1071880Y1096010D02*
D03*
X1000760Y1084580D02*
D03*
D145*
X368390Y654640D02*
D03*
D146*
X666810Y671830D02*
D03*
X480060D02*
D03*
D147*
X988060Y703580D02*
D03*
X1105500Y1126700D02*
D03*
X855980Y335280D02*
D03*
X1572260Y276860D02*
D03*
X1617980Y1028700D02*
D03*
X1137920Y1083310D02*
D03*
X768350Y734060D02*
D03*
X1056640Y783590D02*
D03*
X1116330Y782320D02*
D03*
X916940Y737870D02*
D03*
X920242Y1193292D02*
D03*
X844550Y1191260D02*
D03*
X1040130Y1129030D02*
D03*
X1043560Y465710D02*
D03*
X915670Y572770D02*
D03*
X875030Y552450D02*
D03*
X1008380Y1200150D02*
D03*
X850900Y702310D02*
D03*
X977900Y735330D02*
D03*
X868680Y764540D02*
D03*
X892810Y633730D02*
D03*
X796290Y510540D02*
D03*
X961390Y1140968D02*
D03*
X1106170Y1055370D02*
D03*
X904240Y533400D02*
D03*
X876300Y487680D02*
D03*
X981710Y501650D02*
D03*
X999490Y1028700D02*
D03*
X1082802Y878586D02*
D03*
X1085850Y1141730D02*
D03*
X1007872Y504190D02*
D03*
X905510Y950722D02*
D03*
Y1096010D02*
D03*
X941070Y431800D02*
D03*
X1426972Y721360D02*
D03*
X881380Y1193292D02*
D03*
X820420Y704740D02*
D03*
X908304Y468376D02*
D03*
X881380Y936752D02*
D03*
X916432Y816610D02*
D03*
X972058Y867918D02*
D03*
X971550Y1178052D02*
D03*
X1091946Y1112012D02*
D03*
X881380Y1055370D02*
D03*
X1111250Y543052D02*
D03*
X271780Y480060D02*
D03*
X1129030Y702310D02*
D03*
X1074720Y635300D02*
D03*
X1118558Y628870D02*
D03*
X1028700Y572770D02*
D03*
X1238250Y567690D02*
D03*
X549910Y471170D02*
D03*
X1290320Y434848D02*
D03*
X1331206Y473702D02*
D03*
X1503680Y397510D02*
D03*
X1130300Y1195070D02*
D03*
X1076960D02*
D03*
X1239520Y539750D02*
D03*
X961390Y683260D02*
D03*
X1028700Y906780D02*
D03*
X1019810Y922020D02*
D03*
X1160780Y781050D02*
D03*
X1617980Y1198880D02*
D03*
X1004570Y1224280D02*
D03*
X859790Y447040D02*
D03*
X1536700Y453390D02*
D03*
X412500Y540000D02*
D03*
X352500Y542500D02*
D03*
D148*
X1675130Y313690D02*
D03*
X1699260Y1212850D02*
D03*
X300228Y311150D02*
D03*
X298958Y1219200D02*
D03*
D149*
X689610Y562610D02*
D03*
M02*
